%YAML 1.1
%TAG !u! tag:unity3d.com,2011:
--- !u!74 &7400000
AnimationClip:
  m_ObjectHideFlags: 0
  m_PrefabParentObject: {fileID: 0}
  m_PrefabInternal: {fileID: 0}
  m_Name: anim_ui_dmg
  serializedVersion: 6
  m_Legacy: 1
  m_Compressed: 0
  m_UseHighQualityCurve: 1
  m_RotationCurves: []
  m_CompressedRotationCurves: []
  m_EulerCurves: []
  m_PositionCurves:
  - curve:
      serializedVersion: 2
      m_Curve:
      - time: 0
        value: {x: 0, y: 0, z: 0}
        inSlope: {x: 0, y: 330, z: 0}
        outSlope: {x: 0, y: 330, z: 0}
        tangentMode: 0
      - time: 0.16666667
        value: {x: 0, y: 55, z: 0}
        inSlope: {x: 0, y: 150, z: 0}
        outSlope: {x: 0, y: 150, z: 0}
        tangentMode: 0
      - time: 0.33333334
        value: {x: 0, y: 50, z: 0}
        inSlope: {x: 0, y: -15, z: 0}
        outSlope: {x: 0, y: -15, z: 0}
        tangentMode: 0
      - time: 0.6666667
        value: {x: 0, y: 50, z: 0}
        inSlope: {x: 0, y: 0, z: 0}
        outSlope: {x: 0, y: 0, z: 0}
        tangentMode: 0
      m_PreInfinity: 2
      m_PostInfinity: 2
      m_RotationOrder: 4
    path: 
  m_ScaleCurves:
  - curve:
      serializedVersion: 2
      m_Curve:
      - time: 0
        value: {x: 0, y: 0, z: 0}
        inSlope: {x: 6.6, y: 6.6, z: 6.6}
        outSlope: {x: 6.6, y: 6.6, z: 6.6}
        tangentMode: 0
      - time: 0.16666667
        value: {x: 1.1, y: 1.1, z: 1.1}
        inSlope: {x: 3, y: 3, z: 3}
        outSlope: {x: 3, y: 3, z: 3}
        tangentMode: 0
      - time: 0.33333334
        value: {x: 1, y: 1, z: 1}
        inSlope: {x: -0.30000007, y: -0.30000007, z: -0.30000007}
        outSlope: {x: -0.30000007, y: -0.30000007, z: -0.30000007}
        tangentMode: 0
      - time: 0.6666667
        value: {x: 1, y: 1, z: 1}
        inSlope: {x: 0, y: 0, z: 0}
        outSlope: {x: 0, y: 0, z: 0}
        tangentMode: 0
      m_PreInfinity: 2
      m_PostInfinity: 2
      m_RotationOrder: 4
    path: 
  m_FloatCurves:
  - curve:
      serializedVersion: 2
      m_Curve:
      - time: 0
        value: 0
        inSlope: 6
        outSlope: 6
        tangentMode: 10
      - time: 0.16666667
        value: 1
        inSlope: 2
        outSlope: 2
        tangentMode: 10
      - time: 0.6666667
        value: 0
        inSlope: -2
        outSlope: -2
        tangentMode: 10
      m_PreInfinity: 2
      m_PostInfinity: 2
      m_RotationOrder: 4
    attribute: mColor.a
    path: 
    classID: 114
    script: {fileID: 11500000, guid: e9d0b5f3bbe925a408bd595c79d0bf63, type: 3}
  m_PPtrCurves: []
  m_SampleRate: 60
  m_WrapMode: 0
  m_Bounds:
    m_Center: {x: 0, y: 0, z: 0}
    m_Extent: {x: 0, y: 0, z: 0}
  m_ClipBindingConstant:
    genericBindings: []
    pptrCurveMapping: []
  m_AnimationClipSettings:
    serializedVersion: 2
    m_AdditiveReferencePoseClip: {fileID: 0}
    m_AdditiveReferencePoseTime: 0
    m_StartTime: 0
    m_StopTime: 0.6666667
    m_OrientationOffsetY: 0
    m_Level: 0
    m_CycleOffset: 0
    m_HasAdditiveReferencePose: 0
    m_LoopTime: 1
    m_LoopBlend: 0
    m_LoopBlendOrientation: 0
    m_LoopBlendPositionY: 0
    m_LoopBlendPositionXZ: 0
    m_KeepOriginalOrientation: 0
    m_KeepOriginalPositionY: 1
    m_KeepOriginalPositionXZ: 0
    m_HeightFromFeet: 0
    m_Mirror: 0
  m_EditorCurves:
  - curve:
      serializedVersion: 2
      m_Curve:
      - time: 0
        value: 0
        inSlope: 330
        outSlope: 330
        tangentMode: 10
      - time: 0.16666667
        value: 55
        inSlope: 150
        outSlope: 150
        tangentMode: 10
      - time: 0.33333334
        value: 50
        inSlope: -15
        outSlope: -15
        tangentMode: 10
      - time: 0.6666667
        value: 50
        inSlope: 0
        outSlope: 0
        tangentMode: 10
      m_PreInfinity: 2
      m_PostInfinity: 2
      m_RotationOrder: 4
    attribute: m_LocalPosition.y
    path: 
    classID: 4
    script: {fileID: 0}
  - curve:
      serializedVersion: 2
      m_Curve:
      - time: 0
        value: 0
        inSlope: 6.6
        outSlope: 6.6
        tangentMode: 10
      - time: 0.16666667
        value: 1.1
        inSlope: 3
        outSlope: 3
        tangentMode: 10
      - time: 0.33333334
        value: 1
        inSlope: -0.30000007
        outSlope: -0.30000007
        tangentMode: 10
      - time: 0.6666667
        value: 1
        inSlope: 0
        outSlope: 0
        tangentMode: 10
      m_PreInfinity: 2
      m_PostInfinity: 2
      m_RotationOrder: 4
    attribute: m_LocalScale.x
    path: 
    classID: 4
    script: {fileID: 0}
  - curve:
      serializedVersion: 2
      m_Curve:
      - time: 0
        value: 0
        inSlope: 6.6
        outSlope: 6.6
        tangentMode: 10
      - time: 0.16666667
        value: 1.1
        inSlope: 3
        outSlope: 3
        tangentMode: 10
      - time: 0.33333334
        value: 1
        inSlope: -0.30000007
        outSlope: -0.30000007
        tangentMode: 10
      - time: 0.6666667
        value: 1
        inSlope: 0
        outSlope: 0
        tangentMode: 10
      m_PreInfinity: 2
      m_PostInfinity: 2
      m_RotationOrder: 4
    attribute: m_LocalScale.y
    path: 
    classID: 4
    script: {fileID: 0}
  - curve:
      serializedVersion: 2
      m_Curve:
      - time: 0
        value: 0
        inSlope: 6.6
        outSlope: 6.6
        tangentMode: 10
      - time: 0.16666667
        value: 1.1
        inSlope: 3
        outSlope: 3
        tangentMode: 10
      - time: 0.33333334
        value: 1
        inSlope: -0.30000007
        outSlope: -0.30000007
        tangentMode: 10
      - time: 0.6666667
        value: 1
        inSlope: 0
        outSlope: 0
        tangentMode: 10
      m_PreInfinity: 2
      m_PostInfinity: 2
      m_RotationOrder: 4
    attribute: m_LocalScale.z
    path: 
    classID: 4
    script: {fileID: 0}
  - curve:
      serializedVersion: 2
      m_Curve:
      - time: 0
        value: 0
        inSlope: 6
        outSlope: 6
        tangentMode: 10
      - time: 0.16666667
        value: 1
        inSlope: 2
        outSlope: 2
        tangentMode: 10
      - time: 0.6666667
        value: 0
        inSlope: -2
        outSlope: -2
        tangentMode: 10
      m_PreInfinity: 2
      m_PostInfinity: 2
      m_RotationOrder: 4
    attribute: mColor.a
    path: 
    classID: 114
    script: {fileID: 11500000, guid: e9d0b5f3bbe925a408bd595c79d0bf63, type: 3}
  m_EulerEditorCurves: []
  m_HasGenericRootTransform: 0
  m_HasMotionFloatCurves: 0
  m_GenerateMotionCurves: 0
  m_Events: []
