%YAML 1.1
%TAG !u! tag:unity3d.com,2011:
--- !u!74 &7400000
AnimationClip:
  m_ObjectHideFlags: 0
  m_PrefabParentObject: {fileID: 0}
  m_PrefabInternal: {fileID: 0}
  m_Name: anim_loading
  serializedVersion: 6
  m_Legacy: 1
  m_Compressed: 0
  m_UseHighQualityCurve: 1
  m_RotationCurves:
  - curve:
      serializedVersion: 2
      m_Curve:
      - time: 0
        value: {x: 0, y: 0, z: 0, w: 1}
        inSlope: {x: 0, y: 0, z: -0.7206097, w: -0.004327297}
        outSlope: {x: 0, y: 0, z: -0.7206097, w: -0.004327297}
        tangentMode: 0
      - time: 0.016666668
        value: {x: 0, y: 0, z: -0.012010163, w: 0.9999279}
        inSlope: {x: 0, y: 0, z: -0.7414955, w: -0.009164214}
        outSlope: {x: 0, y: 0, z: -0.7414955, w: -0.009164214}
        tangentMode: 0
      - time: 0.033333335
        value: {x: 0, y: 0, z: -0.024716519, w: 0.9996945}
        inSlope: {x: 0, y: 0, z: -0.7808651, w: -0.019547937}
        outSlope: {x: 0, y: 0, z: -0.7808651, w: -0.019547937}
        tangentMode: 0
      - time: 0.050000004
        value: {x: 0, y: 0, z: -0.038039003, w: 0.9992763}
        inSlope: {x: 0, y: 0, z: -0.8154141, w: -0.03126204}
        outSlope: {x: 0, y: 0, z: -0.8154141, w: -0.03126204}
        tangentMode: 0
      - time: 0.06666667
        value: {x: 0, y: 0, z: -0.05189699, w: 0.99865246}
        inSlope: {x: 0, y: 0, z: -0.84511214, w: -0.04411519}
        outSlope: {x: 0, y: 0, z: -0.84511214, w: -0.04411519}
        tangentMode: 0
      - time: 0.083333336
        value: {x: 0, y: 0, z: -0.066209406, w: 0.9978058}
        inSlope: {x: 0, y: 0, z: -0.86993384, w: -0.057894595}
        outSlope: {x: 0, y: 0, z: -0.86993384, w: -0.057894595}
        tangentMode: 0
      - time: 0.1
        value: {x: 0, y: 0, z: -0.08089478, w: 0.99672264}
        inSlope: {x: 0, y: 0, z: -0.8898624, w: -0.07236243}
        outSlope: {x: 0, y: 0, z: -0.8898624, w: -0.07236243}
        tangentMode: 0
      - time: 0.11666667
        value: {x: 0, y: 0, z: -0.095871486, w: 0.9953937}
        inSlope: {x: 0, y: 0, z: -0.9048902, w: -0.087261185}
        outSlope: {x: 0, y: 0, z: -0.9048902, w: -0.087261185}
        tangentMode: 0
      - time: 0.13333334
        value: {x: 0, y: 0, z: -0.111057796, w: 0.99381393}
        inSlope: {x: 0, y: 0, z: -0.9150187, w: -0.10232268}
        outSlope: {x: 0, y: 0, z: -0.9150187, w: -0.10232268}
        tangentMode: 0
      - time: 0.15
        value: {x: 0, y: 0, z: -0.12637211, w: 0.99198294}
        inSlope: {x: 0, y: 0, z: -0.9202608, w: -0.11727155}
        outSlope: {x: 0, y: 0, z: -0.9202608, w: -0.11727155}
        tangentMode: 0
      - time: 0.16666667
        value: {x: 0, y: 0, z: -0.14173315, w: 0.9899049}
        inSlope: {x: 0, y: 0, z: -0.9206406, w: -0.13181628}
        outSlope: {x: 0, y: 0, z: -0.9206406, w: -0.13181628}
        tangentMode: 0
      - time: 0.18333334
        value: {x: 0, y: 0, z: -0.15706013, w: 0.98758906}
        inSlope: {x: 0, y: 0, z: -0.9161944, w: -0.145669}
        outSlope: {x: 0, y: 0, z: -0.9161944, w: -0.145669}
        tangentMode: 0
      - time: 0.2
        value: {x: 0, y: 0, z: -0.17227297, w: 0.98504925}
        inSlope: {x: 0, y: 0, z: -0.90696895, w: -0.15854539}
        outSlope: {x: 0, y: 0, z: -0.90696895, w: -0.15854539}
        tangentMode: 0
      - time: 0.21666667
        value: {x: 0, y: 0, z: -0.18729243, w: 0.9823042}
        inSlope: {x: 0, y: 0, z: -0.8930205, w: -0.17016114}
        outSlope: {x: 0, y: 0, z: -0.8930205, w: -0.17016114}
        tangentMode: 0
      - time: 0.23333333
        value: {x: 0, y: 0, z: -0.20204031, w: 0.9793772}
        inSlope: {x: 0, y: 0, z: -0.8744159, w: -0.18024625}
        outSlope: {x: 0, y: 0, z: -0.8744159, w: -0.18024625}
        tangentMode: 0
      - time: 0.25
        value: {x: 0, y: 0, z: -0.21643962, w: 0.976296}
        inSlope: {x: 0, y: 0, z: -0.85122776, w: -0.18853955}
        outSlope: {x: 0, y: 0, z: -0.85122776, w: -0.18853955}
        tangentMode: 0
      - time: 0.26666668
        value: {x: 0, y: 0, z: -0.23041458, w: 0.97309256}
        inSlope: {x: 0, y: 0, z: -0.8235372, w: -0.19479974}
        outSlope: {x: 0, y: 0, z: -0.8235372, w: -0.19479974}
        tangentMode: 0
      - time: 0.28333336
        value: {x: 0, y: 0, z: -0.24389088, w: 0.9698027}
        inSlope: {x: 0, y: 0, z: -0.79142666, w: -0.19880338}
        outSlope: {x: 0, y: 0, z: -0.79142666, w: -0.19880338}
        tangentMode: 0
      - time: 0.30000004
        value: {x: 0, y: 0, z: -0.2567955, w: 0.9664658}
        inSlope: {x: 0, y: 0, z: -0.7549777, w: -0.20035191}
        outSlope: {x: 0, y: 0, z: -0.7549777, w: -0.20035191}
        tangentMode: 0
      - time: 0.31666672
        value: {x: 0, y: 0, z: -0.26905683, w: 0.9631243}
        inSlope: {x: 0, y: 0, z: -0.71427524, w: -0.19927008}
        outSlope: {x: 0, y: 0, z: -0.71427524, w: -0.19927008}
        tangentMode: 0
      - time: 0.3333334
        value: {x: 0, y: 0, z: -0.2806047, w: 0.9598234}
        inSlope: {x: 0, y: 0, z: -0.66939926, w: -0.19541664}
        outSlope: {x: 0, y: 0, z: -0.66939926, w: -0.19541664}
        tangentMode: 0
      - time: 0.35000008
        value: {x: 0, y: 0, z: -0.29137015, w: 0.9566104}
        inSlope: {x: 0, y: 0, z: -0.62041855, w: -0.18868253}
        outSlope: {x: 0, y: 0, z: -0.62041855, w: -0.18868253}
        tangentMode: 0
      - time: 0.36666676
        value: {x: 0, y: 0, z: -0.30128533, w: 0.953534}
        inSlope: {x: 0, y: 0, z: -0.56739134, w: -0.17898545}
        outSlope: {x: 0, y: 0, z: -0.56739134, w: -0.17898545}
        tangentMode: 0
      - time: 0.38333344
        value: {x: 0, y: 0, z: -0.3102832, w: 0.9506442}
        inSlope: {x: 0, y: 0, z: -0.51036763, w: -0.16629502}
        outSlope: {x: 0, y: 0, z: -0.51036763, w: -0.16629502}
        tangentMode: 0
      - time: 0.40000013
        value: {x: 0, y: 0, z: -0.3182976, w: 0.94799083}
        inSlope: {x: 0, y: 0, z: -0.4493814, w: -0.15061307}
        outSlope: {x: 0, y: 0, z: -0.4493814, w: -0.15061307}
        tangentMode: 0
      - time: 0.4166668
        value: {x: 0, y: 0, z: -0.3252626, w: 0.94562376}
        inSlope: {x: 0, y: 0, z: -0.3844398, w: -0.13198423}
        outSlope: {x: 0, y: 0, z: -0.3844398, w: -0.13198423}
        tangentMode: 0
      - time: 0.4333335
        value: {x: 0, y: 0, z: -0.33111227, w: 0.94359136}
        inSlope: {x: 0, y: 0, z: -0.3155339, w: -0.110503346}
        outSlope: {x: 0, y: 0, z: -0.3155339, w: -0.110503346}
        tangentMode: 0
      - time: 0.45000017
        value: {x: 0, y: 0, z: -0.3357804, w: 0.9419403}
        inSlope: {x: 0, y: 0, z: -0.242636, w: -0.08631341}
        outSlope: {x: 0, y: 0, z: -0.242636, w: -0.08631341}
        tangentMode: 0
      - time: 0.46666685
        value: {x: 0, y: 0, z: -0.33920014, w: 0.94071424}
        inSlope: {x: 0, y: 0, z: -0.16568528, w: -0.05961294}
        outSlope: {x: 0, y: 0, z: -0.16568528, w: -0.05961294}
        tangentMode: 0
      - time: 0.48333353
        value: {x: 0, y: 0, z: -0.34130326, w: 0.9399532}
        inSlope: {x: 0, y: 0, z: -0.084599525, w: -0.030648697}
        outSlope: {x: 0, y: 0, z: -0.084599525, w: -0.030648697}
        tangentMode: 0
      - time: 0.5000002
        value: {x: 0, y: 0, z: -0.34202012, w: 0.9396926}
        inSlope: {x: 0, y: 0, z: 0, w: 0.0000017881393}
        outSlope: {x: 0, y: 0, z: 0, w: 0.0000017881393}
        tangentMode: 0
      - time: 0.5166668
        value: {x: 0, y: 0, z: -0.34130326, w: 0.93995327}
        inSlope: {x: 0, y: 0, z: 0.08460232, w: 0.030648738}
        outSlope: {x: 0, y: 0, z: 0.08460232, w: 0.030648738}
        tangentMode: 0
      - time: 0.5333335
        value: {x: 0, y: 0, z: -0.33920005, w: 0.94071424}
        inSlope: {x: 0, y: 0, z: 0.16568735, w: 0.059611257}
        outSlope: {x: 0, y: 0, z: 0.16568735, w: 0.059611257}
        tangentMode: 0
      - time: 0.55000013
        value: {x: 0, y: 0, z: -0.33578035, w: 0.9419403}
        inSlope: {x: 0, y: 0, z: 0.24263644, w: 0.086315356}
        outSlope: {x: 0, y: 0, z: 0.24263644, w: 0.086315356}
        tangentMode: 0
      - time: 0.5666668
        value: {x: 0, y: 0, z: -0.33111218, w: 0.9435914}
        inSlope: {x: 0, y: 0, z: 0.31553537, w: 0.11050354}
        outSlope: {x: 0, y: 0, z: 0.31553537, w: 0.11050354}
        tangentMode: 0
      - time: 0.58333343
        value: {x: 0, y: 0, z: -0.32526252, w: 0.94562376}
        inSlope: {x: 0, y: 0, z: 0.3844396, w: 0.13198447}
        outSlope: {x: 0, y: 0, z: 0.3844396, w: 0.13198447}
        tangentMode: 0
      - time: 0.6000001
        value: {x: 0, y: 0, z: -0.31829754, w: 0.9479909}
        inSlope: {x: 0, y: 0, z: 0.4493822, w: 0.15061334}
        outSlope: {x: 0, y: 0, z: 0.4493822, w: 0.15061334}
        tangentMode: 0
      - time: 0.61666673
        value: {x: 0, y: 0, z: -0.31028312, w: 0.9506442}
        inSlope: {x: 0, y: 0, z: 0.5103694, w: 0.16629532}
        outSlope: {x: 0, y: 0, z: 0.5103694, w: 0.16629532}
        tangentMode: 0
      - time: 0.6333334
        value: {x: 0, y: 0, z: -0.30128524, w: 0.95353407}
        inSlope: {x: 0, y: 0, z: 0.56739235, w: 0.17898756}
        outSlope: {x: 0, y: 0, z: 0.56739235, w: 0.17898756}
        tangentMode: 0
      - time: 0.65000004
        value: {x: 0, y: 0, z: -0.29137006, w: 0.95661044}
        inSlope: {x: 0, y: 0, z: 0.6204179, w: 0.18868107}
        outSlope: {x: 0, y: 0, z: 0.6204179, w: 0.18868107}
        tangentMode: 0
      - time: 0.6666667
        value: {x: 0, y: 0, z: -0.28060466, w: 0.9598234}
        inSlope: {x: 0, y: 0, z: 0.6693995, w: 0.19541699}
        outSlope: {x: 0, y: 0, z: 0.6693995, w: 0.19541699}
        tangentMode: 0
      - time: 0.68333334
        value: {x: 0, y: 0, z: -0.26905677, w: 0.96312433}
        inSlope: {x: 0, y: 0, z: 0.71427655, w: 0.19927044}
        outSlope: {x: 0, y: 0, z: 0.71427655, w: 0.19927044}
        tangentMode: 0
      - time: 0.7
        value: {x: 0, y: 0, z: -0.25679547, w: 0.9664658}
        inSlope: {x: 0, y: 0, z: 0.7549773, w: 0.20035048}
        outSlope: {x: 0, y: 0, z: 0.7549773, w: 0.20035048}
        tangentMode: 0
      - time: 0.71666664
        value: {x: 0, y: 0, z: -0.24389088, w: 0.9698027}
        inSlope: {x: 0, y: 0, z: 0.7914263, w: 0.19880374}
        outSlope: {x: 0, y: 0, z: 0.7914263, w: 0.19880374}
        tangentMode: 0
      - time: 0.7333333
        value: {x: 0, y: 0, z: -0.23041461, w: 0.97309256}
        inSlope: {x: 0, y: 0, z: 0.8235373, w: 0.19480008}
        outSlope: {x: 0, y: 0, z: 0.8235373, w: 0.19480008}
        tangentMode: 0
      - time: 0.74999994
        value: {x: 0, y: 0, z: -0.21643966, w: 0.976296}
        inSlope: {x: 0, y: 0, z: 0.851228, w: 0.1885398}
        outSlope: {x: 0, y: 0, z: 0.851228, w: 0.1885398}
        tangentMode: 0
      - time: 0.7666666
        value: {x: 0, y: 0, z: -0.20204037, w: 0.9793772}
        inSlope: {x: 0, y: 0, z: 0.87441576, w: 0.18024641}
        outSlope: {x: 0, y: 0, z: 0.87441576, w: 0.18024641}
        tangentMode: 0
      - time: 0.78333324
        value: {x: 0, y: 0, z: -0.1872925, w: 0.9823042}
        inSlope: {x: 0, y: 0, z: 0.8930204, w: 0.17016129}
        outSlope: {x: 0, y: 0, z: 0.8930204, w: 0.17016129}
        tangentMode: 0
      - time: 0.7999999
        value: {x: 0, y: 0, z: -0.17227305, w: 0.98504925}
        inSlope: {x: 0, y: 0, z: 0.90696883, w: 0.15854374}
        outSlope: {x: 0, y: 0, z: 0.90696883, w: 0.15854374}
        tangentMode: 0
      - time: 0.81666654
        value: {x: 0, y: 0, z: -0.15706024, w: 0.987589}
        inSlope: {x: 0, y: 0, z: 0.9161948, w: 0.14566913}
        outSlope: {x: 0, y: 0, z: 0.9161948, w: 0.14566913}
        tangentMode: 0
      - time: 0.8333332
        value: {x: 0, y: 0, z: -0.14173326, w: 0.9899049}
        inSlope: {x: 0, y: 0, z: 0.9206401, w: 0.13181639}
        outSlope: {x: 0, y: 0, z: 0.9206401, w: 0.13181639}
        tangentMode: 0
      - time: 0.84999985
        value: {x: 0, y: 0, z: -0.12637226, w: 0.9919829}
        inSlope: {x: 0, y: 0, z: 0.9202603, w: 0.117271654}
        outSlope: {x: 0, y: 0, z: 0.9202603, w: 0.117271654}
        tangentMode: 0
      - time: 0.8666665
        value: {x: 0, y: 0, z: -0.111057945, w: 0.99381393}
        inSlope: {x: 0, y: 0, z: 0.91501904, w: 0.10232458}
        outSlope: {x: 0, y: 0, z: 0.91501904, w: 0.10232458}
        tangentMode: 0
      - time: 0.88333315
        value: {x: 0, y: 0, z: -0.09587166, w: 0.9953937}
        inSlope: {x: 0, y: 0, z: 0.9048901, w: 0.08726128}
        outSlope: {x: 0, y: 0, z: 0.9048901, w: 0.08726128}
        tangentMode: 0
      - time: 0.8999998
        value: {x: 0, y: 0, z: -0.08089497, w: 0.99672264}
        inSlope: {x: 0, y: 0, z: 0.8898626, w: 0.0723607}
        outSlope: {x: 0, y: 0, z: 0.8898626, w: 0.0723607}
        tangentMode: 0
      - time: 0.91666645
        value: {x: 0, y: 0, z: -0.0662096, w: 0.9978057}
        inSlope: {x: 0, y: 0, z: 0.8699343, w: 0.05789464}
        outSlope: {x: 0, y: 0, z: 0.8699343, w: 0.05789464}
        tangentMode: 0
      - time: 0.9333331
        value: {x: 0, y: 0, z: -0.051897187, w: 0.99865246}
        inSlope: {x: 0, y: 0, z: 0.8451127, w: 0.04411523}
        outSlope: {x: 0, y: 0, z: 0.8451127, w: 0.04411523}
        tangentMode: 0
      - time: 0.94999975
        value: {x: 0, y: 0, z: -0.038039204, w: 0.9992762}
        inSlope: {x: 0, y: 0, z: 0.81541467, w: 0.03126028}
        outSlope: {x: 0, y: 0, z: 0.81541467, w: 0.03126028}
        tangentMode: 0
      - time: 0.9666664
        value: {x: 0, y: 0, z: -0.024716724, w: 0.99969447}
        inSlope: {x: 0, y: 0, z: 0.78086567, w: 0.019549746}
        outSlope: {x: 0, y: 0, z: 0.78086567, w: 0.019549746}
        tangentMode: 0
      - time: 0.98333305
        value: {x: 0, y: 0, z: -0.012010371, w: 0.9999279}
        inSlope: {x: 0, y: 0, z: 0.74149597, w: 0.0091659725}
        outSlope: {x: 0, y: 0, z: 0.74149597, w: 0.0091659725}
        tangentMode: 0
      - time: 1
        value: {x: 0, y: 0, z: 0, w: 1}
        inSlope: {x: 0, y: 0, z: 0.7206101, w: 0.004327224}
        outSlope: {x: 0, y: 0, z: 0.7206101, w: 0.004327224}
        tangentMode: 0
      m_PreInfinity: 2
      m_PostInfinity: 2
      m_RotationOrder: 4
    path: img/right
  - curve:
      serializedVersion: 2
      m_Curve:
      - time: 0
        value: {x: 0, y: 0, z: 0, w: 1}
        inSlope: {x: 0, y: 0, z: 0.7206097, w: -0.004327297}
        outSlope: {x: 0, y: 0, z: 0.7206097, w: -0.004327297}
        tangentMode: 0
      - time: 0.016666668
        value: {x: 0, y: 0, z: 0.012010163, w: 0.9999279}
        inSlope: {x: 0, y: 0, z: 0.7414955, w: -0.009164214}
        outSlope: {x: 0, y: 0, z: 0.7414955, w: -0.009164214}
        tangentMode: 0
      - time: 0.033333335
        value: {x: 0, y: 0, z: 0.024716519, w: 0.9996945}
        inSlope: {x: 0, y: 0, z: 0.7808651, w: -0.019547937}
        outSlope: {x: 0, y: 0, z: 0.7808651, w: -0.019547937}
        tangentMode: 0
      - time: 0.050000004
        value: {x: 0, y: 0, z: 0.038039003, w: 0.9992763}
        inSlope: {x: 0, y: 0, z: 0.8154141, w: -0.03126204}
        outSlope: {x: 0, y: 0, z: 0.8154141, w: -0.03126204}
        tangentMode: 0
      - time: 0.06666667
        value: {x: 0, y: 0, z: 0.05189699, w: 0.99865246}
        inSlope: {x: 0, y: 0, z: 0.84511214, w: -0.04411519}
        outSlope: {x: 0, y: 0, z: 0.84511214, w: -0.04411519}
        tangentMode: 0
      - time: 0.083333336
        value: {x: 0, y: 0, z: 0.066209406, w: 0.9978058}
        inSlope: {x: 0, y: 0, z: 0.86993384, w: -0.057894595}
        outSlope: {x: 0, y: 0, z: 0.86993384, w: -0.057894595}
        tangentMode: 0
      - time: 0.1
        value: {x: 0, y: 0, z: 0.08089478, w: 0.99672264}
        inSlope: {x: 0, y: 0, z: 0.8898624, w: -0.07236243}
        outSlope: {x: 0, y: 0, z: 0.8898624, w: -0.07236243}
        tangentMode: 0
      - time: 0.11666667
        value: {x: 0, y: 0, z: 0.095871486, w: 0.9953937}
        inSlope: {x: 0, y: 0, z: 0.9048902, w: -0.087261185}
        outSlope: {x: 0, y: 0, z: 0.9048902, w: -0.087261185}
        tangentMode: 0
      - time: 0.13333334
        value: {x: 0, y: 0, z: 0.111057796, w: 0.99381393}
        inSlope: {x: 0, y: 0, z: 0.9150187, w: -0.10232268}
        outSlope: {x: 0, y: 0, z: 0.9150187, w: -0.10232268}
        tangentMode: 0
      - time: 0.15
        value: {x: 0, y: 0, z: 0.12637211, w: 0.99198294}
        inSlope: {x: 0, y: 0, z: 0.9202608, w: -0.11727155}
        outSlope: {x: 0, y: 0, z: 0.9202608, w: -0.11727155}
        tangentMode: 0
      - time: 0.16666667
        value: {x: 0, y: 0, z: 0.14173315, w: 0.9899049}
        inSlope: {x: 0, y: 0, z: 0.9206406, w: -0.13181628}
        outSlope: {x: 0, y: 0, z: 0.9206406, w: -0.13181628}
        tangentMode: 0
      - time: 0.18333334
        value: {x: 0, y: 0, z: 0.15706013, w: 0.98758906}
        inSlope: {x: 0, y: 0, z: 0.9161944, w: -0.145669}
        outSlope: {x: 0, y: 0, z: 0.9161944, w: -0.145669}
        tangentMode: 0
      - time: 0.2
        value: {x: 0, y: 0, z: 0.17227297, w: 0.98504925}
        inSlope: {x: 0, y: 0, z: 0.90696895, w: -0.15854539}
        outSlope: {x: 0, y: 0, z: 0.90696895, w: -0.15854539}
        tangentMode: 0
      - time: 0.21666667
        value: {x: 0, y: 0, z: 0.18729243, w: 0.9823042}
        inSlope: {x: 0, y: 0, z: 0.8930205, w: -0.17016114}
        outSlope: {x: 0, y: 0, z: 0.8930205, w: -0.17016114}
        tangentMode: 0
      - time: 0.23333333
        value: {x: 0, y: 0, z: 0.20204031, w: 0.9793772}
        inSlope: {x: 0, y: 0, z: 0.8744159, w: -0.18024625}
        outSlope: {x: 0, y: 0, z: 0.8744159, w: -0.18024625}
        tangentMode: 0
      - time: 0.25
        value: {x: 0, y: 0, z: 0.21643962, w: 0.976296}
        inSlope: {x: 0, y: 0, z: 0.85122776, w: -0.18853955}
        outSlope: {x: 0, y: 0, z: 0.85122776, w: -0.18853955}
        tangentMode: 0
      - time: 0.26666668
        value: {x: 0, y: 0, z: 0.23041458, w: 0.97309256}
        inSlope: {x: 0, y: 0, z: 0.8235372, w: -0.19479974}
        outSlope: {x: 0, y: 0, z: 0.8235372, w: -0.19479974}
        tangentMode: 0
      - time: 0.28333336
        value: {x: 0, y: 0, z: 0.24389088, w: 0.9698027}
        inSlope: {x: 0, y: 0, z: 0.79142666, w: -0.19880338}
        outSlope: {x: 0, y: 0, z: 0.79142666, w: -0.19880338}
        tangentMode: 0
      - time: 0.30000004
        value: {x: 0, y: 0, z: 0.2567955, w: 0.9664658}
        inSlope: {x: 0, y: 0, z: 0.7549777, w: -0.20035191}
        outSlope: {x: 0, y: 0, z: 0.7549777, w: -0.20035191}
        tangentMode: 0
      - time: 0.31666672
        value: {x: 0, y: 0, z: 0.26905683, w: 0.9631243}
        inSlope: {x: 0, y: 0, z: 0.71427524, w: -0.19927008}
        outSlope: {x: 0, y: 0, z: 0.71427524, w: -0.19927008}
        tangentMode: 0
      - time: 0.3333334
        value: {x: 0, y: 0, z: 0.2806047, w: 0.9598234}
        inSlope: {x: 0, y: 0, z: 0.66939926, w: -0.19541664}
        outSlope: {x: 0, y: 0, z: 0.66939926, w: -0.19541664}
        tangentMode: 0
      - time: 0.35000008
        value: {x: 0, y: 0, z: 0.29137015, w: 0.9566104}
        inSlope: {x: 0, y: 0, z: 0.62041855, w: -0.18868253}
        outSlope: {x: 0, y: 0, z: 0.62041855, w: -0.18868253}
        tangentMode: 0
      - time: 0.36666676
        value: {x: 0, y: 0, z: 0.30128533, w: 0.953534}
        inSlope: {x: 0, y: 0, z: 0.56739134, w: -0.17898545}
        outSlope: {x: 0, y: 0, z: 0.56739134, w: -0.17898545}
        tangentMode: 0
      - time: 0.38333344
        value: {x: 0, y: 0, z: 0.3102832, w: 0.9506442}
        inSlope: {x: 0, y: 0, z: 0.51036763, w: -0.16629502}
        outSlope: {x: 0, y: 0, z: 0.51036763, w: -0.16629502}
        tangentMode: 0
      - time: 0.40000013
        value: {x: 0, y: 0, z: 0.3182976, w: 0.94799083}
        inSlope: {x: 0, y: 0, z: 0.4493814, w: -0.15061307}
        outSlope: {x: 0, y: 0, z: 0.4493814, w: -0.15061307}
        tangentMode: 0
      - time: 0.4166668
        value: {x: 0, y: 0, z: 0.3252626, w: 0.94562376}
        inSlope: {x: 0, y: 0, z: 0.3844398, w: -0.13198423}
        outSlope: {x: 0, y: 0, z: 0.3844398, w: -0.13198423}
        tangentMode: 0
      - time: 0.4333335
        value: {x: 0, y: 0, z: 0.33111227, w: 0.94359136}
        inSlope: {x: 0, y: 0, z: 0.3155339, w: -0.110503346}
        outSlope: {x: 0, y: 0, z: 0.3155339, w: -0.110503346}
        tangentMode: 0
      - time: 0.45000017
        value: {x: 0, y: 0, z: 0.3357804, w: 0.9419403}
        inSlope: {x: 0, y: 0, z: 0.242636, w: -0.08631341}
        outSlope: {x: 0, y: 0, z: 0.242636, w: -0.08631341}
        tangentMode: 0
      - time: 0.46666685
        value: {x: 0, y: 0, z: 0.33920014, w: 0.94071424}
        inSlope: {x: 0, y: 0, z: 0.16568528, w: -0.05961294}
        outSlope: {x: 0, y: 0, z: 0.16568528, w: -0.05961294}
        tangentMode: 0
      - time: 0.48333353
        value: {x: 0, y: 0, z: 0.34130326, w: 0.9399532}
        inSlope: {x: 0, y: 0, z: 0.084599525, w: -0.030648697}
        outSlope: {x: 0, y: 0, z: 0.084599525, w: -0.030648697}
        tangentMode: 0
      - time: 0.5000002
        value: {x: 0, y: 0, z: 0.34202012, w: 0.9396926}
        inSlope: {x: 0, y: 0, z: 0, w: 0.0000017881393}
        outSlope: {x: 0, y: 0, z: 0, w: 0.0000017881393}
        tangentMode: 0
      - time: 0.5166668
        value: {x: 0, y: 0, z: 0.34130326, w: 0.93995327}
        inSlope: {x: 0, y: 0, z: -0.08460232, w: 0.030648738}
        outSlope: {x: 0, y: 0, z: -0.08460232, w: 0.030648738}
        tangentMode: 0
      - time: 0.5333335
        value: {x: 0, y: 0, z: 0.33920005, w: 0.94071424}
        inSlope: {x: 0, y: 0, z: -0.16568735, w: 0.059611257}
        outSlope: {x: 0, y: 0, z: -0.16568735, w: 0.059611257}
        tangentMode: 0
      - time: 0.55000013
        value: {x: 0, y: 0, z: 0.33578035, w: 0.9419403}
        inSlope: {x: 0, y: 0, z: -0.24263644, w: 0.086315356}
        outSlope: {x: 0, y: 0, z: -0.24263644, w: 0.086315356}
        tangentMode: 0
      - time: 0.5666668
        value: {x: 0, y: 0, z: 0.33111218, w: 0.9435914}
        inSlope: {x: 0, y: 0, z: -0.31553537, w: 0.11050354}
        outSlope: {x: 0, y: 0, z: -0.31553537, w: 0.11050354}
        tangentMode: 0
      - time: 0.58333343
        value: {x: 0, y: 0, z: 0.32526252, w: 0.94562376}
        inSlope: {x: 0, y: 0, z: -0.3844396, w: 0.13198447}
        outSlope: {x: 0, y: 0, z: -0.3844396, w: 0.13198447}
        tangentMode: 0
      - time: 0.6000001
        value: {x: 0, y: 0, z: 0.31829754, w: 0.9479909}
        inSlope: {x: 0, y: 0, z: -0.4493822, w: 0.15061334}
        outSlope: {x: 0, y: 0, z: -0.4493822, w: 0.15061334}
        tangentMode: 0
      - time: 0.61666673
        value: {x: 0, y: 0, z: 0.31028312, w: 0.9506442}
        inSlope: {x: 0, y: 0, z: -0.5103694, w: 0.16629532}
        outSlope: {x: 0, y: 0, z: -0.5103694, w: 0.16629532}
        tangentMode: 0
      - time: 0.6333334
        value: {x: 0, y: 0, z: 0.30128524, w: 0.95353407}
        inSlope: {x: 0, y: 0, z: -0.56739235, w: 0.17898756}
        outSlope: {x: 0, y: 0, z: -0.56739235, w: 0.17898756}
        tangentMode: 0
      - time: 0.65000004
        value: {x: 0, y: 0, z: 0.29137006, w: 0.95661044}
        inSlope: {x: 0, y: 0, z: -0.6204179, w: 0.18868107}
        outSlope: {x: 0, y: 0, z: -0.6204179, w: 0.18868107}
        tangentMode: 0
      - time: 0.6666667
        value: {x: 0, y: 0, z: 0.28060466, w: 0.9598234}
        inSlope: {x: 0, y: 0, z: -0.6693995, w: 0.19541699}
        outSlope: {x: 0, y: 0, z: -0.6693995, w: 0.19541699}
        tangentMode: 0
      - time: 0.68333334
        value: {x: 0, y: 0, z: 0.26905677, w: 0.96312433}
        inSlope: {x: 0, y: 0, z: -0.71427655, w: 0.19927044}
        outSlope: {x: 0, y: 0, z: -0.71427655, w: 0.19927044}
        tangentMode: 0
      - time: 0.7
        value: {x: 0, y: 0, z: 0.25679547, w: 0.9664658}
        inSlope: {x: 0, y: 0, z: -0.7549773, w: 0.20035048}
        outSlope: {x: 0, y: 0, z: -0.7549773, w: 0.20035048}
        tangentMode: 0
      - time: 0.71666664
        value: {x: 0, y: 0, z: 0.24389088, w: 0.9698027}
        inSlope: {x: 0, y: 0, z: -0.7914263, w: 0.19880374}
        outSlope: {x: 0, y: 0, z: -0.7914263, w: 0.19880374}
        tangentMode: 0
      - time: 0.7333333
        value: {x: 0, y: 0, z: 0.23041461, w: 0.97309256}
        inSlope: {x: 0, y: 0, z: -0.8235373, w: 0.19480008}
        outSlope: {x: 0, y: 0, z: -0.8235373, w: 0.19480008}
        tangentMode: 0
      - time: 0.74999994
        value: {x: 0, y: 0, z: 0.21643966, w: 0.976296}
        inSlope: {x: 0, y: 0, z: -0.851228, w: 0.1885398}
        outSlope: {x: 0, y: 0, z: -0.851228, w: 0.1885398}
        tangentMode: 0
      - time: 0.7666666
        value: {x: 0, y: 0, z: 0.20204037, w: 0.9793772}
        inSlope: {x: 0, y: 0, z: -0.87441576, w: 0.18024641}
        outSlope: {x: 0, y: 0, z: -0.87441576, w: 0.18024641}
        tangentMode: 0
      - time: 0.78333324
        value: {x: 0, y: 0, z: 0.1872925, w: 0.9823042}
        inSlope: {x: 0, y: 0, z: -0.8930204, w: 0.17016129}
        outSlope: {x: 0, y: 0, z: -0.8930204, w: 0.17016129}
        tangentMode: 0
      - time: 0.7999999
        value: {x: 0, y: 0, z: 0.17227305, w: 0.98504925}
        inSlope: {x: 0, y: 0, z: -0.90696883, w: 0.15854374}
        outSlope: {x: 0, y: 0, z: -0.90696883, w: 0.15854374}
        tangentMode: 0
      - time: 0.81666654
        value: {x: 0, y: 0, z: 0.15706024, w: 0.987589}
        inSlope: {x: 0, y: 0, z: -0.9161948, w: 0.14566913}
        outSlope: {x: 0, y: 0, z: -0.9161948, w: 0.14566913}
        tangentMode: 0
      - time: 0.8333332
        value: {x: 0, y: 0, z: 0.14173326, w: 0.9899049}
        inSlope: {x: 0, y: 0, z: -0.9206401, w: 0.13181639}
        outSlope: {x: 0, y: 0, z: -0.9206401, w: 0.13181639}
        tangentMode: 0
      - time: 0.84999985
        value: {x: 0, y: 0, z: 0.12637226, w: 0.9919829}
        inSlope: {x: 0, y: 0, z: -0.9202603, w: 0.117271654}
        outSlope: {x: 0, y: 0, z: -0.9202603, w: 0.117271654}
        tangentMode: 0
      - time: 0.8666665
        value: {x: 0, y: 0, z: 0.111057945, w: 0.99381393}
        inSlope: {x: 0, y: 0, z: -0.91501904, w: 0.10232458}
        outSlope: {x: 0, y: 0, z: -0.91501904, w: 0.10232458}
        tangentMode: 0
      - time: 0.88333315
        value: {x: 0, y: 0, z: 0.09587166, w: 0.9953937}
        inSlope: {x: 0, y: 0, z: -0.9048901, w: 0.08726128}
        outSlope: {x: 0, y: 0, z: -0.9048901, w: 0.08726128}
        tangentMode: 0
      - time: 0.8999998
        value: {x: 0, y: 0, z: 0.08089497, w: 0.99672264}
        inSlope: {x: 0, y: 0, z: -0.8898626, w: 0.0723607}
        outSlope: {x: 0, y: 0, z: -0.8898626, w: 0.0723607}
        tangentMode: 0
      - time: 0.91666645
        value: {x: 0, y: 0, z: 0.0662096, w: 0.9978057}
        inSlope: {x: 0, y: 0, z: -0.8699343, w: 0.05789464}
        outSlope: {x: 0, y: 0, z: -0.8699343, w: 0.05789464}
        tangentMode: 0
      - time: 0.9333331
        value: {x: 0, y: 0, z: 0.051897187, w: 0.99865246}
        inSlope: {x: 0, y: 0, z: -0.8451127, w: 0.04411523}
        outSlope: {x: 0, y: 0, z: -0.8451127, w: 0.04411523}
        tangentMode: 0
      - time: 0.94999975
        value: {x: 0, y: 0, z: 0.038039204, w: 0.9992762}
        inSlope: {x: 0, y: 0, z: -0.81541467, w: 0.03126028}
        outSlope: {x: 0, y: 0, z: -0.81541467, w: 0.03126028}
        tangentMode: 0
      - time: 0.9666664
        value: {x: 0, y: 0, z: 0.024716724, w: 0.99969447}
        inSlope: {x: 0, y: 0, z: -0.78086567, w: 0.019549746}
        outSlope: {x: 0, y: 0, z: -0.78086567, w: 0.019549746}
        tangentMode: 0
      - time: 0.98333305
        value: {x: 0, y: 0, z: 0.012010371, w: 0.9999279}
        inSlope: {x: 0, y: 0, z: -0.74149597, w: 0.0091659725}
        outSlope: {x: 0, y: 0, z: -0.74149597, w: 0.0091659725}
        tangentMode: 0
      - time: 1
        value: {x: 0, y: 0, z: 0, w: 1}
        inSlope: {x: 0, y: 0, z: -0.7206101, w: 0.004327224}
        outSlope: {x: 0, y: 0, z: -0.7206101, w: 0.004327224}
        tangentMode: 0
      m_PreInfinity: 2
      m_PostInfinity: 2
      m_RotationOrder: 4
    path: img/left
  m_CompressedRotationCurves: []
  m_EulerCurves: []
  m_PositionCurves:
  - curve:
      serializedVersion: 2
      m_Curve:
      - time: 0
        value: {x: 0, y: 0, z: 0}
        inSlope: {x: 0, y: 20, z: 0}
        outSlope: {x: 0, y: 20, z: 0}
        tangentMode: 0
      - time: 0.5
        value: {x: 0, y: 10, z: 0}
        inSlope: {x: 0, y: 0, z: 0}
        outSlope: {x: 0, y: 0, z: 0}
        tangentMode: 0
      - time: 1
        value: {x: 0, y: 0, z: 0}
        inSlope: {x: 0, y: -20, z: 0}
        outSlope: {x: 0, y: -20, z: 0}
        tangentMode: 0
      m_PreInfinity: 2
      m_PostInfinity: 2
      m_RotationOrder: 4
    path: img
  m_ScaleCurves: []
  m_FloatCurves: []
  m_PPtrCurves: []
  m_SampleRate: 60
  m_WrapMode: 2
  m_Bounds:
    m_Center: {x: 0, y: 0, z: 0}
    m_Extent: {x: 0, y: 0, z: 0}
  m_ClipBindingConstant:
    genericBindings: []
    pptrCurveMapping: []
  m_AnimationClipSettings:
    serializedVersion: 2
    m_AdditiveReferencePoseClip: {fileID: 0}
    m_AdditiveReferencePoseTime: 0
    m_StartTime: 0
    m_StopTime: 1
    m_OrientationOffsetY: 0
    m_Level: 0
    m_CycleOffset: 0
    m_HasAdditiveReferencePose: 0
    m_LoopTime: 1
    m_LoopBlend: 0
    m_LoopBlendOrientation: 0
    m_LoopBlendPositionY: 0
    m_LoopBlendPositionXZ: 0
    m_KeepOriginalOrientation: 0
    m_KeepOriginalPositionY: 1
    m_KeepOriginalPositionXZ: 0
    m_HeightFromFeet: 0
    m_Mirror: 0
  m_EditorCurves:
  - curve:
      serializedVersion: 2
      m_Curve:
      - time: 0
        value: 0
        inSlope: 20
        outSlope: 20
        tangentMode: 10
      - time: 0.5
        value: 10
        inSlope: 0
        outSlope: 0
        tangentMode: 10
      - time: 1
        value: 0
        inSlope: -20
        outSlope: -20
        tangentMode: 10
      m_PreInfinity: 2
      m_PostInfinity: 2
      m_RotationOrder: 4
    attribute: m_LocalPosition.y
    path: img
    classID: 4
    script: {fileID: 0}
  - curve:
      serializedVersion: 2
      m_Curve:
      - time: 0
        value: 0
        inSlope: 0
        outSlope: 0
        tangentMode: 0
      - time: 0.016666668
        value: 0
        inSlope: 0
        outSlope: 0
        tangentMode: 0
      - time: 0.033333335
        value: 0
        inSlope: 0
        outSlope: 0
        tangentMode: 0
      - time: 0.050000004
        value: 0
        inSlope: 0
        outSlope: 0
        tangentMode: 0
      - time: 0.06666667
        value: 0
        inSlope: 0
        outSlope: 0
        tangentMode: 0
      - time: 0.083333336
        value: 0
        inSlope: 0
        outSlope: 0
        tangentMode: 0
      - time: 0.1
        value: 0
        inSlope: 0
        outSlope: 0
        tangentMode: 0
      - time: 0.11666667
        value: 0
        inSlope: 0
        outSlope: 0
        tangentMode: 0
      - time: 0.13333334
        value: 0
        inSlope: 0
        outSlope: 0
        tangentMode: 0
      - time: 0.15
        value: 0
        inSlope: 0
        outSlope: 0
        tangentMode: 0
      - time: 0.16666667
        value: 0
        inSlope: 0
        outSlope: 0
        tangentMode: 0
      - time: 0.18333334
        value: 0
        inSlope: 0
        outSlope: 0
        tangentMode: 0
      - time: 0.2
        value: 0
        inSlope: 0
        outSlope: 0
        tangentMode: 0
      - time: 0.21666667
        value: 0
        inSlope: 0
        outSlope: 0
        tangentMode: 0
      - time: 0.23333333
        value: 0
        inSlope: 0
        outSlope: 0
        tangentMode: 0
      - time: 0.25
        value: 0
        inSlope: 0
        outSlope: 0
        tangentMode: 0
      - time: 0.26666668
        value: 0
        inSlope: 0
        outSlope: 0
        tangentMode: 0
      - time: 0.28333336
        value: 0
        inSlope: 0
        outSlope: 0
        tangentMode: 0
      - time: 0.30000004
        value: 0
        inSlope: 0
        outSlope: 0
        tangentMode: 0
      - time: 0.31666672
        value: 0
        inSlope: 0
        outSlope: 0
        tangentMode: 0
      - time: 0.3333334
        value: 0
        inSlope: 0
        outSlope: 0
        tangentMode: 0
      - time: 0.35000008
        value: 0
        inSlope: 0
        outSlope: 0
        tangentMode: 0
      - time: 0.36666676
        value: 0
        inSlope: 0
        outSlope: 0
        tangentMode: 0
      - time: 0.38333344
        value: 0
        inSlope: 0
        outSlope: 0
        tangentMode: 0
      - time: 0.40000013
        value: 0
        inSlope: 0
        outSlope: 0
        tangentMode: 0
      - time: 0.4166668
        value: 0
        inSlope: 0
        outSlope: 0
        tangentMode: 0
      - time: 0.4333335
        value: 0
        inSlope: 0
        outSlope: 0
        tangentMode: 0
      - time: 0.45000017
        value: 0
        inSlope: 0
        outSlope: 0
        tangentMode: 0
      - time: 0.46666685
        value: 0
        inSlope: 0
        outSlope: 0
        tangentMode: 0
      - time: 0.48333353
        value: 0
        inSlope: 0
        outSlope: 0
        tangentMode: 0
      - time: 0.5000002
        value: 0
        inSlope: 0
        outSlope: 0
        tangentMode: 0
      - time: 0.5166668
        value: 0
        inSlope: 0
        outSlope: 0
        tangentMode: 0
      - time: 0.5333335
        value: 0
        inSlope: 0
        outSlope: 0
        tangentMode: 0
      - time: 0.55000013
        value: 0
        inSlope: 0
        outSlope: 0
        tangentMode: 0
      - time: 0.5666668
        value: 0
        inSlope: 0
        outSlope: 0
        tangentMode: 0
      - time: 0.58333343
        value: 0
        inSlope: 0
        outSlope: 0
        tangentMode: 0
      - time: 0.6000001
        value: 0
        inSlope: 0
        outSlope: 0
        tangentMode: 0
      - time: 0.61666673
        value: 0
        inSlope: 0
        outSlope: 0
        tangentMode: 0
      - time: 0.6333334
        value: 0
        inSlope: 0
        outSlope: 0
        tangentMode: 0
      - time: 0.65000004
        value: 0
        inSlope: 0
        outSlope: 0
        tangentMode: 0
      - time: 0.6666667
        value: 0
        inSlope: 0
        outSlope: 0
        tangentMode: 0
      - time: 0.68333334
        value: 0
        inSlope: 0
        outSlope: 0
        tangentMode: 0
      - time: 0.7
        value: 0
        inSlope: 0
        outSlope: 0
        tangentMode: 0
      - time: 0.71666664
        value: 0
        inSlope: 0
        outSlope: 0
        tangentMode: 0
      - time: 0.7333333
        value: 0
        inSlope: 0
        outSlope: 0
        tangentMode: 0
      - time: 0.74999994
        value: 0
        inSlope: 0
        outSlope: 0
        tangentMode: 0
      - time: 0.7666666
        value: 0
        inSlope: 0
        outSlope: 0
        tangentMode: 0
      - time: 0.78333324
        value: 0
        inSlope: 0
        outSlope: 0
        tangentMode: 0
      - time: 0.7999999
        value: 0
        inSlope: 0
        outSlope: 0
        tangentMode: 0
      - time: 0.81666654
        value: 0
        inSlope: 0
        outSlope: 0
        tangentMode: 0
      - time: 0.8333332
        value: 0
        inSlope: 0
        outSlope: 0
        tangentMode: 0
      - time: 0.84999985
        value: 0
        inSlope: 0
        outSlope: 0
        tangentMode: 0
      - time: 0.8666665
        value: 0
        inSlope: 0
        outSlope: 0
        tangentMode: 0
      - time: 0.88333315
        value: 0
        inSlope: 0
        outSlope: 0
        tangentMode: 0
      - time: 0.8999998
        value: 0
        inSlope: 0
        outSlope: 0
        tangentMode: 0
      - time: 0.91666645
        value: 0
        inSlope: 0
        outSlope: 0
        tangentMode: 0
      - time: 0.9333331
        value: 0
        inSlope: 0
        outSlope: 0
        tangentMode: 0
      - time: 0.94999975
        value: 0
        inSlope: 0
        outSlope: 0
        tangentMode: 0
      - time: 0.9666664
        value: 0
        inSlope: 0
        outSlope: 0
        tangentMode: 0
      - time: 0.98333305
        value: 0
        inSlope: 0
        outSlope: 0
        tangentMode: 0
      - time: 1
        value: 0
        inSlope: 0
        outSlope: 0
        tangentMode: 0
      m_PreInfinity: 2
      m_PostInfinity: 2
      m_RotationOrder: 4
    attribute: m_LocalRotation.x
    path: img/right
    classID: 4
    script: {fileID: 0}
  - curve:
      serializedVersion: 2
      m_Curve:
      - time: 0
        value: 0
        inSlope: 0
        outSlope: 0
        tangentMode: 0
      - time: 0.016666668
        value: 0
        inSlope: 0
        outSlope: 0
        tangentMode: 0
      - time: 0.033333335
        value: 0
        inSlope: 0
        outSlope: 0
        tangentMode: 0
      - time: 0.050000004
        value: 0
        inSlope: 0
        outSlope: 0
        tangentMode: 0
      - time: 0.06666667
        value: 0
        inSlope: 0
        outSlope: 0
        tangentMode: 0
      - time: 0.083333336
        value: 0
        inSlope: 0
        outSlope: 0
        tangentMode: 0
      - time: 0.1
        value: 0
        inSlope: 0
        outSlope: 0
        tangentMode: 0
      - time: 0.11666667
        value: 0
        inSlope: 0
        outSlope: 0
        tangentMode: 0
      - time: 0.13333334
        value: 0
        inSlope: 0
        outSlope: 0
        tangentMode: 0
      - time: 0.15
        value: 0
        inSlope: 0
        outSlope: 0
        tangentMode: 0
      - time: 0.16666667
        value: 0
        inSlope: 0
        outSlope: 0
        tangentMode: 0
      - time: 0.18333334
        value: 0
        inSlope: 0
        outSlope: 0
        tangentMode: 0
      - time: 0.2
        value: 0
        inSlope: 0
        outSlope: 0
        tangentMode: 0
      - time: 0.21666667
        value: 0
        inSlope: 0
        outSlope: 0
        tangentMode: 0
      - time: 0.23333333
        value: 0
        inSlope: 0
        outSlope: 0
        tangentMode: 0
      - time: 0.25
        value: 0
        inSlope: 0
        outSlope: 0
        tangentMode: 0
      - time: 0.26666668
        value: 0
        inSlope: 0
        outSlope: 0
        tangentMode: 0
      - time: 0.28333336
        value: 0
        inSlope: 0
        outSlope: 0
        tangentMode: 0
      - time: 0.30000004
        value: 0
        inSlope: 0
        outSlope: 0
        tangentMode: 0
      - time: 0.31666672
        value: 0
        inSlope: 0
        outSlope: 0
        tangentMode: 0
      - time: 0.3333334
        value: 0
        inSlope: 0
        outSlope: 0
        tangentMode: 0
      - time: 0.35000008
        value: 0
        inSlope: 0
        outSlope: 0
        tangentMode: 0
      - time: 0.36666676
        value: 0
        inSlope: 0
        outSlope: 0
        tangentMode: 0
      - time: 0.38333344
        value: 0
        inSlope: 0
        outSlope: 0
        tangentMode: 0
      - time: 0.40000013
        value: 0
        inSlope: 0
        outSlope: 0
        tangentMode: 0
      - time: 0.4166668
        value: 0
        inSlope: 0
        outSlope: 0
        tangentMode: 0
      - time: 0.4333335
        value: 0
        inSlope: 0
        outSlope: 0
        tangentMode: 0
      - time: 0.45000017
        value: 0
        inSlope: 0
        outSlope: 0
        tangentMode: 0
      - time: 0.46666685
        value: 0
        inSlope: 0
        outSlope: 0
        tangentMode: 0
      - time: 0.48333353
        value: 0
        inSlope: 0
        outSlope: 0
        tangentMode: 0
      - time: 0.5000002
        value: 0
        inSlope: 0
        outSlope: 0
        tangentMode: 0
      - time: 0.5166668
        value: 0
        inSlope: 0
        outSlope: 0
        tangentMode: 0
      - time: 0.5333335
        value: 0
        inSlope: 0
        outSlope: 0
        tangentMode: 0
      - time: 0.55000013
        value: 0
        inSlope: 0
        outSlope: 0
        tangentMode: 0
      - time: 0.5666668
        value: 0
        inSlope: 0
        outSlope: 0
        tangentMode: 0
      - time: 0.58333343
        value: 0
        inSlope: 0
        outSlope: 0
        tangentMode: 0
      - time: 0.6000001
        value: 0
        inSlope: 0
        outSlope: 0
        tangentMode: 0
      - time: 0.61666673
        value: 0
        inSlope: 0
        outSlope: 0
        tangentMode: 0
      - time: 0.6333334
        value: 0
        inSlope: 0
        outSlope: 0
        tangentMode: 0
      - time: 0.65000004
        value: 0
        inSlope: 0
        outSlope: 0
        tangentMode: 0
      - time: 0.6666667
        value: 0
        inSlope: 0
        outSlope: 0
        tangentMode: 0
      - time: 0.68333334
        value: 0
        inSlope: 0
        outSlope: 0
        tangentMode: 0
      - time: 0.7
        value: 0
        inSlope: 0
        outSlope: 0
        tangentMode: 0
      - time: 0.71666664
        value: 0
        inSlope: 0
        outSlope: 0
        tangentMode: 0
      - time: 0.7333333
        value: 0
        inSlope: 0
        outSlope: 0
        tangentMode: 0
      - time: 0.74999994
        value: 0
        inSlope: 0
        outSlope: 0
        tangentMode: 0
      - time: 0.7666666
        value: 0
        inSlope: 0
        outSlope: 0
        tangentMode: 0
      - time: 0.78333324
        value: 0
        inSlope: 0
        outSlope: 0
        tangentMode: 0
      - time: 0.7999999
        value: 0
        inSlope: 0
        outSlope: 0
        tangentMode: 0
      - time: 0.81666654
        value: 0
        inSlope: 0
        outSlope: 0
        tangentMode: 0
      - time: 0.8333332
        value: 0
        inSlope: 0
        outSlope: 0
        tangentMode: 0
      - time: 0.84999985
        value: 0
        inSlope: 0
        outSlope: 0
        tangentMode: 0
      - time: 0.8666665
        value: 0
        inSlope: 0
        outSlope: 0
        tangentMode: 0
      - time: 0.88333315
        value: 0
        inSlope: 0
        outSlope: 0
        tangentMode: 0
      - time: 0.8999998
        value: 0
        inSlope: 0
        outSlope: 0
        tangentMode: 0
      - time: 0.91666645
        value: 0
        inSlope: 0
        outSlope: 0
        tangentMode: 0
      - time: 0.9333331
        value: 0
        inSlope: 0
        outSlope: 0
        tangentMode: 0
      - time: 0.94999975
        value: 0
        inSlope: 0
        outSlope: 0
        tangentMode: 0
      - time: 0.9666664
        value: 0
        inSlope: 0
        outSlope: 0
        tangentMode: 0
      - time: 0.98333305
        value: 0
        inSlope: 0
        outSlope: 0
        tangentMode: 0
      - time: 1
        value: 0
        inSlope: 0
        outSlope: 0
        tangentMode: 0
      m_PreInfinity: 2
      m_PostInfinity: 2
      m_RotationOrder: 4
    attribute: m_LocalRotation.y
    path: img/right
    classID: 4
    script: {fileID: 0}
  - curve:
      serializedVersion: 2
      m_Curve:
      - time: 0
        value: 0
        inSlope: -0.7206097
        outSlope: -0.7206097
        tangentMode: 0
      - time: 0.016666668
        value: -0.012010163
        inSlope: -0.7414955
        outSlope: -0.7414955
        tangentMode: 0
      - time: 0.033333335
        value: -0.024716519
        inSlope: -0.7808651
        outSlope: -0.7808651
        tangentMode: 0
      - time: 0.050000004
        value: -0.038039003
        inSlope: -0.8154141
        outSlope: -0.8154141
        tangentMode: 0
      - time: 0.06666667
        value: -0.05189699
        inSlope: -0.84511214
        outSlope: -0.84511214
        tangentMode: 0
      - time: 0.083333336
        value: -0.066209406
        inSlope: -0.86993384
        outSlope: -0.86993384
        tangentMode: 0
      - time: 0.1
        value: -0.08089478
        inSlope: -0.8898624
        outSlope: -0.8898624
        tangentMode: 0
      - time: 0.11666667
        value: -0.095871486
        inSlope: -0.9048902
        outSlope: -0.9048902
        tangentMode: 0
      - time: 0.13333334
        value: -0.111057796
        inSlope: -0.9150187
        outSlope: -0.9150187
        tangentMode: 0
      - time: 0.15
        value: -0.12637211
        inSlope: -0.9202608
        outSlope: -0.9202608
        tangentMode: 0
      - time: 0.16666667
        value: -0.14173315
        inSlope: -0.9206406
        outSlope: -0.9206406
        tangentMode: 0
      - time: 0.18333334
        value: -0.15706013
        inSlope: -0.9161944
        outSlope: -0.9161944
        tangentMode: 0
      - time: 0.2
        value: -0.17227297
        inSlope: -0.90696895
        outSlope: -0.90696895
        tangentMode: 0
      - time: 0.21666667
        value: -0.18729243
        inSlope: -0.8930205
        outSlope: -0.8930205
        tangentMode: 0
      - time: 0.23333333
        value: -0.20204031
        inSlope: -0.8744159
        outSlope: -0.8744159
        tangentMode: 0
      - time: 0.25
        value: -0.21643962
        inSlope: -0.85122776
        outSlope: -0.85122776
        tangentMode: 0
      - time: 0.26666668
        value: -0.23041458
        inSlope: -0.8235372
        outSlope: -0.8235372
        tangentMode: 0
      - time: 0.28333336
        value: -0.24389088
        inSlope: -0.79142666
        outSlope: -0.79142666
        tangentMode: 0
      - time: 0.30000004
        value: -0.2567955
        inSlope: -0.7549777
        outSlope: -0.7549777
        tangentMode: 0
      - time: 0.31666672
        value: -0.26905683
        inSlope: -0.71427524
        outSlope: -0.71427524
        tangentMode: 0
      - time: 0.3333334
        value: -0.2806047
        inSlope: -0.66939926
        outSlope: -0.66939926
        tangentMode: 0
      - time: 0.35000008
        value: -0.29137015
        inSlope: -0.62041855
        outSlope: -0.62041855
        tangentMode: 0
      - time: 0.36666676
        value: -0.30128533
        inSlope: -0.56739134
        outSlope: -0.56739134
        tangentMode: 0
      - time: 0.38333344
        value: -0.3102832
        inSlope: -0.51036763
        outSlope: -0.51036763
        tangentMode: 0
      - time: 0.40000013
        value: -0.3182976
        inSlope: -0.4493814
        outSlope: -0.4493814
        tangentMode: 0
      - time: 0.4166668
        value: -0.3252626
        inSlope: -0.3844398
        outSlope: -0.3844398
        tangentMode: 0
      - time: 0.4333335
        value: -0.33111227
        inSlope: -0.3155339
        outSlope: -0.3155339
        tangentMode: 0
      - time: 0.45000017
        value: -0.3357804
        inSlope: -0.242636
        outSlope: -0.242636
        tangentMode: 0
      - time: 0.46666685
        value: -0.33920014
        inSlope: -0.16568528
        outSlope: -0.16568528
        tangentMode: 0
      - time: 0.48333353
        value: -0.34130326
        inSlope: -0.084599525
        outSlope: -0.084599525
        tangentMode: 0
      - time: 0.5000002
        value: -0.34202012
        inSlope: 0
        outSlope: 0
        tangentMode: 0
      - time: 0.5166668
        value: -0.34130326
        inSlope: 0.08460232
        outSlope: 0.08460232
        tangentMode: 0
      - time: 0.5333335
        value: -0.33920005
        inSlope: 0.16568735
        outSlope: 0.16568735
        tangentMode: 0
      - time: 0.55000013
        value: -0.33578035
        inSlope: 0.24263644
        outSlope: 0.24263644
        tangentMode: 0
      - time: 0.5666668
        value: -0.33111218
        inSlope: 0.31553537
        outSlope: 0.31553537
        tangentMode: 0
      - time: 0.58333343
        value: -0.32526252
        inSlope: 0.3844396
        outSlope: 0.3844396
        tangentMode: 0
      - time: 0.6000001
        value: -0.31829754
        inSlope: 0.4493822
        outSlope: 0.4493822
        tangentMode: 0
      - time: 0.61666673
        value: -0.31028312
        inSlope: 0.5103694
        outSlope: 0.5103694
        tangentMode: 0
      - time: 0.6333334
        value: -0.30128524
        inSlope: 0.56739235
        outSlope: 0.56739235
        tangentMode: 0
      - time: 0.65000004
        value: -0.29137006
        inSlope: 0.6204179
        outSlope: 0.6204179
        tangentMode: 0
      - time: 0.6666667
        value: -0.28060466
        inSlope: 0.6693995
        outSlope: 0.6693995
        tangentMode: 0
      - time: 0.68333334
        value: -0.26905677
        inSlope: 0.71427655
        outSlope: 0.71427655
        tangentMode: 0
      - time: 0.7
        value: -0.25679547
        inSlope: 0.7549773
        outSlope: 0.7549773
        tangentMode: 0
      - time: 0.71666664
        value: -0.24389088
        inSlope: 0.7914263
        outSlope: 0.7914263
        tangentMode: 0
      - time: 0.7333333
        value: -0.23041461
        inSlope: 0.8235373
        outSlope: 0.8235373
        tangentMode: 0
      - time: 0.74999994
        value: -0.21643966
        inSlope: 0.851228
        outSlope: 0.851228
        tangentMode: 0
      - time: 0.7666666
        value: -0.20204037
        inSlope: 0.87441576
        outSlope: 0.87441576
        tangentMode: 0
      - time: 0.78333324
        value: -0.1872925
        inSlope: 0.8930204
        outSlope: 0.8930204
        tangentMode: 0
      - time: 0.7999999
        value: -0.17227305
        inSlope: 0.90696883
        outSlope: 0.90696883
        tangentMode: 0
      - time: 0.81666654
        value: -0.15706024
        inSlope: 0.9161948
        outSlope: 0.9161948
        tangentMode: 0
      - time: 0.8333332
        value: -0.14173326
        inSlope: 0.9206401
        outSlope: 0.9206401
        tangentMode: 0
      - time: 0.84999985
        value: -0.12637226
        inSlope: 0.9202603
        outSlope: 0.9202603
        tangentMode: 0
      - time: 0.8666665
        value: -0.111057945
        inSlope: 0.91501904
        outSlope: 0.91501904
        tangentMode: 0
      - time: 0.88333315
        value: -0.09587166
        inSlope: 0.9048901
        outSlope: 0.9048901
        tangentMode: 0
      - time: 0.8999998
        value: -0.08089497
        inSlope: 0.8898626
        outSlope: 0.8898626
        tangentMode: 0
      - time: 0.91666645
        value: -0.0662096
        inSlope: 0.8699343
        outSlope: 0.8699343
        tangentMode: 0
      - time: 0.9333331
        value: -0.051897187
        inSlope: 0.8451127
        outSlope: 0.8451127
        tangentMode: 0
      - time: 0.94999975
        value: -0.038039204
        inSlope: 0.81541467
        outSlope: 0.81541467
        tangentMode: 0
      - time: 0.9666664
        value: -0.024716724
        inSlope: 0.78086567
        outSlope: 0.78086567
        tangentMode: 0
      - time: 0.98333305
        value: -0.012010371
        inSlope: 0.74149597
        outSlope: 0.74149597
        tangentMode: 0
      - time: 1
        value: 0
        inSlope: 0.7206101
        outSlope: 0.7206101
        tangentMode: 0
      m_PreInfinity: 2
      m_PostInfinity: 2
      m_RotationOrder: 4
    attribute: m_LocalRotation.z
    path: img/right
    classID: 4
    script: {fileID: 0}
  - curve:
      serializedVersion: 2
      m_Curve:
      - time: 0
        value: 1
        inSlope: -0.004327297
        outSlope: -0.004327297
        tangentMode: 0
      - time: 0.016666668
        value: 0.9999279
        inSlope: -0.009164214
        outSlope: -0.009164214
        tangentMode: 0
      - time: 0.033333335
        value: 0.9996945
        inSlope: -0.019547937
        outSlope: -0.019547937
        tangentMode: 0
      - time: 0.050000004
        value: 0.9992763
        inSlope: -0.03126204
        outSlope: -0.03126204
        tangentMode: 0
      - time: 0.06666667
        value: 0.99865246
        inSlope: -0.04411519
        outSlope: -0.04411519
        tangentMode: 0
      - time: 0.083333336
        value: 0.9978058
        inSlope: -0.057894595
        outSlope: -0.057894595
        tangentMode: 0
      - time: 0.1
        value: 0.99672264
        inSlope: -0.07236243
        outSlope: -0.07236243
        tangentMode: 0
      - time: 0.11666667
        value: 0.9953937
        inSlope: -0.087261185
        outSlope: -0.087261185
        tangentMode: 0
      - time: 0.13333334
        value: 0.99381393
        inSlope: -0.10232268
        outSlope: -0.10232268
        tangentMode: 0
      - time: 0.15
        value: 0.99198294
        inSlope: -0.11727155
        outSlope: -0.11727155
        tangentMode: 0
      - time: 0.16666667
        value: 0.9899049
        inSlope: -0.13181628
        outSlope: -0.13181628
        tangentMode: 0
      - time: 0.18333334
        value: 0.98758906
        inSlope: -0.145669
        outSlope: -0.145669
        tangentMode: 0
      - time: 0.2
        value: 0.98504925
        inSlope: -0.15854539
        outSlope: -0.15854539
        tangentMode: 0
      - time: 0.21666667
        value: 0.9823042
        inSlope: -0.17016114
        outSlope: -0.17016114
        tangentMode: 0
      - time: 0.23333333
        value: 0.9793772
        inSlope: -0.18024625
        outSlope: -0.18024625
        tangentMode: 0
      - time: 0.25
        value: 0.976296
        inSlope: -0.18853955
        outSlope: -0.18853955
        tangentMode: 0
      - time: 0.26666668
        value: 0.97309256
        inSlope: -0.19479974
        outSlope: -0.19479974
        tangentMode: 0
      - time: 0.28333336
        value: 0.9698027
        inSlope: -0.19880338
        outSlope: -0.19880338
        tangentMode: 0
      - time: 0.30000004
        value: 0.9664658
        inSlope: -0.20035191
        outSlope: -0.20035191
        tangentMode: 0
      - time: 0.31666672
        value: 0.9631243
        inSlope: -0.19927008
        outSlope: -0.19927008
        tangentMode: 0
      - time: 0.3333334
        value: 0.9598234
        inSlope: -0.19541664
        outSlope: -0.19541664
        tangentMode: 0
      - time: 0.35000008
        value: 0.9566104
        inSlope: -0.18868253
        outSlope: -0.18868253
        tangentMode: 0
      - time: 0.36666676
        value: 0.953534
        inSlope: -0.17898545
        outSlope: -0.17898545
        tangentMode: 0
      - time: 0.38333344
        value: 0.9506442
        inSlope: -0.16629502
        outSlope: -0.16629502
        tangentMode: 0
      - time: 0.40000013
        value: 0.94799083
        inSlope: -0.15061307
        outSlope: -0.15061307
        tangentMode: 0
      - time: 0.4166668
        value: 0.94562376
        inSlope: -0.13198423
        outSlope: -0.13198423
        tangentMode: 0
      - time: 0.4333335
        value: 0.94359136
        inSlope: -0.110503346
        outSlope: -0.110503346
        tangentMode: 0
      - time: 0.45000017
        value: 0.9419403
        inSlope: -0.08631341
        outSlope: -0.08631341
        tangentMode: 0
      - time: 0.46666685
        value: 0.94071424
        inSlope: -0.05961294
        outSlope: -0.05961294
        tangentMode: 0
      - time: 0.48333353
        value: 0.9399532
        inSlope: -0.030648697
        outSlope: -0.030648697
        tangentMode: 0
      - time: 0.5000002
        value: 0.9396926
        inSlope: 0.0000017881393
        outSlope: 0.0000017881393
        tangentMode: 0
      - time: 0.5166668
        value: 0.93995327
        inSlope: 0.030648738
        outSlope: 0.030648738
        tangentMode: 0
      - time: 0.5333335
        value: 0.94071424
        inSlope: 0.059611257
        outSlope: 0.059611257
        tangentMode: 0
      - time: 0.55000013
        value: 0.9419403
        inSlope: 0.086315356
        outSlope: 0.086315356
        tangentMode: 0
      - time: 0.5666668
        value: 0.9435914
        inSlope: 0.11050354
        outSlope: 0.11050354
        tangentMode: 0
      - time: 0.58333343
        value: 0.94562376
        inSlope: 0.13198447
        outSlope: 0.13198447
        tangentMode: 0
      - time: 0.6000001
        value: 0.9479909
        inSlope: 0.15061334
        outSlope: 0.15061334
        tangentMode: 0
      - time: 0.61666673
        value: 0.9506442
        inSlope: 0.16629532
        outSlope: 0.16629532
        tangentMode: 0
      - time: 0.6333334
        value: 0.95353407
        inSlope: 0.17898756
        outSlope: 0.17898756
        tangentMode: 0
      - time: 0.65000004
        value: 0.95661044
        inSlope: 0.18868107
        outSlope: 0.18868107
        tangentMode: 0
      - time: 0.6666667
        value: 0.9598234
        inSlope: 0.19541699
        outSlope: 0.19541699
        tangentMode: 0
      - time: 0.68333334
        value: 0.96312433
        inSlope: 0.19927044
        outSlope: 0.19927044
        tangentMode: 0
      - time: 0.7
        value: 0.9664658
        inSlope: 0.20035048
        outSlope: 0.20035048
        tangentMode: 0
      - time: 0.71666664
        value: 0.9698027
        inSlope: 0.19880374
        outSlope: 0.19880374
        tangentMode: 0
      - time: 0.7333333
        value: 0.97309256
        inSlope: 0.19480008
        outSlope: 0.19480008
        tangentMode: 0
      - time: 0.74999994
        value: 0.976296
        inSlope: 0.1885398
        outSlope: 0.1885398
        tangentMode: 0
      - time: 0.7666666
        value: 0.9793772
        inSlope: 0.18024641
        outSlope: 0.18024641
        tangentMode: 0
      - time: 0.78333324
        value: 0.9823042
        inSlope: 0.17016129
        outSlope: 0.17016129
        tangentMode: 0
      - time: 0.7999999
        value: 0.98504925
        inSlope: 0.15854374
        outSlope: 0.15854374
        tangentMode: 0
      - time: 0.81666654
        value: 0.987589
        inSlope: 0.14566913
        outSlope: 0.14566913
        tangentMode: 0
      - time: 0.8333332
        value: 0.9899049
        inSlope: 0.13181639
        outSlope: 0.13181639
        tangentMode: 0
      - time: 0.84999985
        value: 0.9919829
        inSlope: 0.117271654
        outSlope: 0.117271654
        tangentMode: 0
      - time: 0.8666665
        value: 0.99381393
        inSlope: 0.10232458
        outSlope: 0.10232458
        tangentMode: 0
      - time: 0.88333315
        value: 0.9953937
        inSlope: 0.08726128
        outSlope: 0.08726128
        tangentMode: 0
      - time: 0.8999998
        value: 0.99672264
        inSlope: 0.0723607
        outSlope: 0.0723607
        tangentMode: 0
      - time: 0.91666645
        value: 0.9978057
        inSlope: 0.05789464
        outSlope: 0.05789464
        tangentMode: 0
      - time: 0.9333331
        value: 0.99865246
        inSlope: 0.04411523
        outSlope: 0.04411523
        tangentMode: 0
      - time: 0.94999975
        value: 0.9992762
        inSlope: 0.03126028
        outSlope: 0.03126028
        tangentMode: 0
      - time: 0.9666664
        value: 0.99969447
        inSlope: 0.019549746
        outSlope: 0.019549746
        tangentMode: 0
      - time: 0.98333305
        value: 0.9999279
        inSlope: 0.0091659725
        outSlope: 0.0091659725
        tangentMode: 0
      - time: 1
        value: 1
        inSlope: 0.004327224
        outSlope: 0.004327224
        tangentMode: 0
      m_PreInfinity: 2
      m_PostInfinity: 2
      m_RotationOrder: 4
    attribute: m_LocalRotation.w
    path: img/right
    classID: 4
    script: {fileID: 0}
  - curve:
      serializedVersion: 2
      m_Curve:
      - time: 0
        value: 0
        inSlope: 0
        outSlope: 0
        tangentMode: 0
      - time: 0.016666668
        value: 0
        inSlope: 0
        outSlope: 0
        tangentMode: 0
      - time: 0.033333335
        value: 0
        inSlope: 0
        outSlope: 0
        tangentMode: 0
      - time: 0.050000004
        value: 0
        inSlope: 0
        outSlope: 0
        tangentMode: 0
      - time: 0.06666667
        value: 0
        inSlope: 0
        outSlope: 0
        tangentMode: 0
      - time: 0.083333336
        value: 0
        inSlope: 0
        outSlope: 0
        tangentMode: 0
      - time: 0.1
        value: 0
        inSlope: 0
        outSlope: 0
        tangentMode: 0
      - time: 0.11666667
        value: 0
        inSlope: 0
        outSlope: 0
        tangentMode: 0
      - time: 0.13333334
        value: 0
        inSlope: 0
        outSlope: 0
        tangentMode: 0
      - time: 0.15
        value: 0
        inSlope: 0
        outSlope: 0
        tangentMode: 0
      - time: 0.16666667
        value: 0
        inSlope: 0
        outSlope: 0
        tangentMode: 0
      - time: 0.18333334
        value: 0
        inSlope: 0
        outSlope: 0
        tangentMode: 0
      - time: 0.2
        value: 0
        inSlope: 0
        outSlope: 0
        tangentMode: 0
      - time: 0.21666667
        value: 0
        inSlope: 0
        outSlope: 0
        tangentMode: 0
      - time: 0.23333333
        value: 0
        inSlope: 0
        outSlope: 0
        tangentMode: 0
      - time: 0.25
        value: 0
        inSlope: 0
        outSlope: 0
        tangentMode: 0
      - time: 0.26666668
        value: 0
        inSlope: 0
        outSlope: 0
        tangentMode: 0
      - time: 0.28333336
        value: 0
        inSlope: 0
        outSlope: 0
        tangentMode: 0
      - time: 0.30000004
        value: 0
        inSlope: 0
        outSlope: 0
        tangentMode: 0
      - time: 0.31666672
        value: 0
        inSlope: 0
        outSlope: 0
        tangentMode: 0
      - time: 0.3333334
        value: 0
        inSlope: 0
        outSlope: 0
        tangentMode: 0
      - time: 0.35000008
        value: 0
        inSlope: 0
        outSlope: 0
        tangentMode: 0
      - time: 0.36666676
        value: 0
        inSlope: 0
        outSlope: 0
        tangentMode: 0
      - time: 0.38333344
        value: 0
        inSlope: 0
        outSlope: 0
        tangentMode: 0
      - time: 0.40000013
        value: 0
        inSlope: 0
        outSlope: 0
        tangentMode: 0
      - time: 0.4166668
        value: 0
        inSlope: 0
        outSlope: 0
        tangentMode: 0
      - time: 0.4333335
        value: 0
        inSlope: 0
        outSlope: 0
        tangentMode: 0
      - time: 0.45000017
        value: 0
        inSlope: 0
        outSlope: 0
        tangentMode: 0
      - time: 0.46666685
        value: 0
        inSlope: 0
        outSlope: 0
        tangentMode: 0
      - time: 0.48333353
        value: 0
        inSlope: 0
        outSlope: 0
        tangentMode: 0
      - time: 0.5000002
        value: 0
        inSlope: 0
        outSlope: 0
        tangentMode: 0
      - time: 0.5166668
        value: 0
        inSlope: 0
        outSlope: 0
        tangentMode: 0
      - time: 0.5333335
        value: 0
        inSlope: 0
        outSlope: 0
        tangentMode: 0
      - time: 0.55000013
        value: 0
        inSlope: 0
        outSlope: 0
        tangentMode: 0
      - time: 0.5666668
        value: 0
        inSlope: 0
        outSlope: 0
        tangentMode: 0
      - time: 0.58333343
        value: 0
        inSlope: 0
        outSlope: 0
        tangentMode: 0
      - time: 0.6000001
        value: 0
        inSlope: 0
        outSlope: 0
        tangentMode: 0
      - time: 0.61666673
        value: 0
        inSlope: 0
        outSlope: 0
        tangentMode: 0
      - time: 0.6333334
        value: 0
        inSlope: 0
        outSlope: 0
        tangentMode: 0
      - time: 0.65000004
        value: 0
        inSlope: 0
        outSlope: 0
        tangentMode: 0
      - time: 0.6666667
        value: 0
        inSlope: 0
        outSlope: 0
        tangentMode: 0
      - time: 0.68333334
        value: 0
        inSlope: 0
        outSlope: 0
        tangentMode: 0
      - time: 0.7
        value: 0
        inSlope: 0
        outSlope: 0
        tangentMode: 0
      - time: 0.71666664
        value: 0
        inSlope: 0
        outSlope: 0
        tangentMode: 0
      - time: 0.7333333
        value: 0
        inSlope: 0
        outSlope: 0
        tangentMode: 0
      - time: 0.74999994
        value: 0
        inSlope: 0
        outSlope: 0
        tangentMode: 0
      - time: 0.7666666
        value: 0
        inSlope: 0
        outSlope: 0
        tangentMode: 0
      - time: 0.78333324
        value: 0
        inSlope: 0
        outSlope: 0
        tangentMode: 0
      - time: 0.7999999
        value: 0
        inSlope: 0
        outSlope: 0
        tangentMode: 0
      - time: 0.81666654
        value: 0
        inSlope: 0
        outSlope: 0
        tangentMode: 0
      - time: 0.8333332
        value: 0
        inSlope: 0
        outSlope: 0
        tangentMode: 0
      - time: 0.84999985
        value: 0
        inSlope: 0
        outSlope: 0
        tangentMode: 0
      - time: 0.8666665
        value: 0
        inSlope: 0
        outSlope: 0
        tangentMode: 0
      - time: 0.88333315
        value: 0
        inSlope: 0
        outSlope: 0
        tangentMode: 0
      - time: 0.8999998
        value: 0
        inSlope: 0
        outSlope: 0
        tangentMode: 0
      - time: 0.91666645
        value: 0
        inSlope: 0
        outSlope: 0
        tangentMode: 0
      - time: 0.9333331
        value: 0
        inSlope: 0
        outSlope: 0
        tangentMode: 0
      - time: 0.94999975
        value: 0
        inSlope: 0
        outSlope: 0
        tangentMode: 0
      - time: 0.9666664
        value: 0
        inSlope: 0
        outSlope: 0
        tangentMode: 0
      - time: 0.98333305
        value: 0
        inSlope: 0
        outSlope: 0
        tangentMode: 0
      - time: 1
        value: 0
        inSlope: 0
        outSlope: 0
        tangentMode: 0
      m_PreInfinity: 2
      m_PostInfinity: 2
      m_RotationOrder: 4
    attribute: m_LocalRotation.x
    path: img/left
    classID: 4
    script: {fileID: 0}
  - curve:
      serializedVersion: 2
      m_Curve:
      - time: 0
        value: 0
        inSlope: 0
        outSlope: 0
        tangentMode: 0
      - time: 0.016666668
        value: 0
        inSlope: 0
        outSlope: 0
        tangentMode: 0
      - time: 0.033333335
        value: 0
        inSlope: 0
        outSlope: 0
        tangentMode: 0
      - time: 0.050000004
        value: 0
        inSlope: 0
        outSlope: 0
        tangentMode: 0
      - time: 0.06666667
        value: 0
        inSlope: 0
        outSlope: 0
        tangentMode: 0
      - time: 0.083333336
        value: 0
        inSlope: 0
        outSlope: 0
        tangentMode: 0
      - time: 0.1
        value: 0
        inSlope: 0
        outSlope: 0
        tangentMode: 0
      - time: 0.11666667
        value: 0
        inSlope: 0
        outSlope: 0
        tangentMode: 0
      - time: 0.13333334
        value: 0
        inSlope: 0
        outSlope: 0
        tangentMode: 0
      - time: 0.15
        value: 0
        inSlope: 0
        outSlope: 0
        tangentMode: 0
      - time: 0.16666667
        value: 0
        inSlope: 0
        outSlope: 0
        tangentMode: 0
      - time: 0.18333334
        value: 0
        inSlope: 0
        outSlope: 0
        tangentMode: 0
      - time: 0.2
        value: 0
        inSlope: 0
        outSlope: 0
        tangentMode: 0
      - time: 0.21666667
        value: 0
        inSlope: 0
        outSlope: 0
        tangentMode: 0
      - time: 0.23333333
        value: 0
        inSlope: 0
        outSlope: 0
        tangentMode: 0
      - time: 0.25
        value: 0
        inSlope: 0
        outSlope: 0
        tangentMode: 0
      - time: 0.26666668
        value: 0
        inSlope: 0
        outSlope: 0
        tangentMode: 0
      - time: 0.28333336
        value: 0
        inSlope: 0
        outSlope: 0
        tangentMode: 0
      - time: 0.30000004
        value: 0
        inSlope: 0
        outSlope: 0
        tangentMode: 0
      - time: 0.31666672
        value: 0
        inSlope: 0
        outSlope: 0
        tangentMode: 0
      - time: 0.3333334
        value: 0
        inSlope: 0
        outSlope: 0
        tangentMode: 0
      - time: 0.35000008
        value: 0
        inSlope: 0
        outSlope: 0
        tangentMode: 0
      - time: 0.36666676
        value: 0
        inSlope: 0
        outSlope: 0
        tangentMode: 0
      - time: 0.38333344
        value: 0
        inSlope: 0
        outSlope: 0
        tangentMode: 0
      - time: 0.40000013
        value: 0
        inSlope: 0
        outSlope: 0
        tangentMode: 0
      - time: 0.4166668
        value: 0
        inSlope: 0
        outSlope: 0
        tangentMode: 0
      - time: 0.4333335
        value: 0
        inSlope: 0
        outSlope: 0
        tangentMode: 0
      - time: 0.45000017
        value: 0
        inSlope: 0
        outSlope: 0
        tangentMode: 0
      - time: 0.46666685
        value: 0
        inSlope: 0
        outSlope: 0
        tangentMode: 0
      - time: 0.48333353
        value: 0
        inSlope: 0
        outSlope: 0
        tangentMode: 0
      - time: 0.5000002
        value: 0
        inSlope: 0
        outSlope: 0
        tangentMode: 0
      - time: 0.5166668
        value: 0
        inSlope: 0
        outSlope: 0
        tangentMode: 0
      - time: 0.5333335
        value: 0
        inSlope: 0
        outSlope: 0
        tangentMode: 0
      - time: 0.55000013
        value: 0
        inSlope: 0
        outSlope: 0
        tangentMode: 0
      - time: 0.5666668
        value: 0
        inSlope: 0
        outSlope: 0
        tangentMode: 0
      - time: 0.58333343
        value: 0
        inSlope: 0
        outSlope: 0
        tangentMode: 0
      - time: 0.6000001
        value: 0
        inSlope: 0
        outSlope: 0
        tangentMode: 0
      - time: 0.61666673
        value: 0
        inSlope: 0
        outSlope: 0
        tangentMode: 0
      - time: 0.6333334
        value: 0
        inSlope: 0
        outSlope: 0
        tangentMode: 0
      - time: 0.65000004
        value: 0
        inSlope: 0
        outSlope: 0
        tangentMode: 0
      - time: 0.6666667
        value: 0
        inSlope: 0
        outSlope: 0
        tangentMode: 0
      - time: 0.68333334
        value: 0
        inSlope: 0
        outSlope: 0
        tangentMode: 0
      - time: 0.7
        value: 0
        inSlope: 0
        outSlope: 0
        tangentMode: 0
      - time: 0.71666664
        value: 0
        inSlope: 0
        outSlope: 0
        tangentMode: 0
      - time: 0.7333333
        value: 0
        inSlope: 0
        outSlope: 0
        tangentMode: 0
      - time: 0.74999994
        value: 0
        inSlope: 0
        outSlope: 0
        tangentMode: 0
      - time: 0.7666666
        value: 0
        inSlope: 0
        outSlope: 0
        tangentMode: 0
      - time: 0.78333324
        value: 0
        inSlope: 0
        outSlope: 0
        tangentMode: 0
      - time: 0.7999999
        value: 0
        inSlope: 0
        outSlope: 0
        tangentMode: 0
      - time: 0.81666654
        value: 0
        inSlope: 0
        outSlope: 0
        tangentMode: 0
      - time: 0.8333332
        value: 0
        inSlope: 0
        outSlope: 0
        tangentMode: 0
      - time: 0.84999985
        value: 0
        inSlope: 0
        outSlope: 0
        tangentMode: 0
      - time: 0.8666665
        value: 0
        inSlope: 0
        outSlope: 0
        tangentMode: 0
      - time: 0.88333315
        value: 0
        inSlope: 0
        outSlope: 0
        tangentMode: 0
      - time: 0.8999998
        value: 0
        inSlope: 0
        outSlope: 0
        tangentMode: 0
      - time: 0.91666645
        value: 0
        inSlope: 0
        outSlope: 0
        tangentMode: 0
      - time: 0.9333331
        value: 0
        inSlope: 0
        outSlope: 0
        tangentMode: 0
      - time: 0.94999975
        value: 0
        inSlope: 0
        outSlope: 0
        tangentMode: 0
      - time: 0.9666664
        value: 0
        inSlope: 0
        outSlope: 0
        tangentMode: 0
      - time: 0.98333305
        value: 0
        inSlope: 0
        outSlope: 0
        tangentMode: 0
      - time: 1
        value: 0
        inSlope: 0
        outSlope: 0
        tangentMode: 0
      m_PreInfinity: 2
      m_PostInfinity: 2
      m_RotationOrder: 4
    attribute: m_LocalRotation.y
    path: img/left
    classID: 4
    script: {fileID: 0}
  - curve:
      serializedVersion: 2
      m_Curve:
      - time: 0
        value: 0
        inSlope: 0.7206097
        outSlope: 0.7206097
        tangentMode: 0
      - time: 0.016666668
        value: 0.012010163
        inSlope: 0.7414955
        outSlope: 0.7414955
        tangentMode: 0
      - time: 0.033333335
        value: 0.024716519
        inSlope: 0.7808651
        outSlope: 0.7808651
        tangentMode: 0
      - time: 0.050000004
        value: 0.038039003
        inSlope: 0.8154141
        outSlope: 0.8154141
        tangentMode: 0
      - time: 0.06666667
        value: 0.05189699
        inSlope: 0.84511214
        outSlope: 0.84511214
        tangentMode: 0
      - time: 0.083333336
        value: 0.066209406
        inSlope: 0.86993384
        outSlope: 0.86993384
        tangentMode: 0
      - time: 0.1
        value: 0.08089478
        inSlope: 0.8898624
        outSlope: 0.8898624
        tangentMode: 0
      - time: 0.11666667
        value: 0.095871486
        inSlope: 0.9048902
        outSlope: 0.9048902
        tangentMode: 0
      - time: 0.13333334
        value: 0.111057796
        inSlope: 0.9150187
        outSlope: 0.9150187
        tangentMode: 0
      - time: 0.15
        value: 0.12637211
        inSlope: 0.9202608
        outSlope: 0.9202608
        tangentMode: 0
      - time: 0.16666667
        value: 0.14173315
        inSlope: 0.9206406
        outSlope: 0.9206406
        tangentMode: 0
      - time: 0.18333334
        value: 0.15706013
        inSlope: 0.9161944
        outSlope: 0.9161944
        tangentMode: 0
      - time: 0.2
        value: 0.17227297
        inSlope: 0.90696895
        outSlope: 0.90696895
        tangentMode: 0
      - time: 0.21666667
        value: 0.18729243
        inSlope: 0.8930205
        outSlope: 0.8930205
        tangentMode: 0
      - time: 0.23333333
        value: 0.20204031
        inSlope: 0.8744159
        outSlope: 0.8744159
        tangentMode: 0
      - time: 0.25
        value: 0.21643962
        inSlope: 0.85122776
        outSlope: 0.85122776
        tangentMode: 0
      - time: 0.26666668
        value: 0.23041458
        inSlope: 0.8235372
        outSlope: 0.8235372
        tangentMode: 0
      - time: 0.28333336
        value: 0.24389088
        inSlope: 0.79142666
        outSlope: 0.79142666
        tangentMode: 0
      - time: 0.30000004
        value: 0.2567955
        inSlope: 0.7549777
        outSlope: 0.7549777
        tangentMode: 0
      - time: 0.31666672
        value: 0.26905683
        inSlope: 0.71427524
        outSlope: 0.71427524
        tangentMode: 0
      - time: 0.3333334
        value: 0.2806047
        inSlope: 0.66939926
        outSlope: 0.66939926
        tangentMode: 0
      - time: 0.35000008
        value: 0.29137015
        inSlope: 0.62041855
        outSlope: 0.62041855
        tangentMode: 0
      - time: 0.36666676
        value: 0.30128533
        inSlope: 0.56739134
        outSlope: 0.56739134
        tangentMode: 0
      - time: 0.38333344
        value: 0.3102832
        inSlope: 0.51036763
        outSlope: 0.51036763
        tangentMode: 0
      - time: 0.40000013
        value: 0.3182976
        inSlope: 0.4493814
        outSlope: 0.4493814
        tangentMode: 0
      - time: 0.4166668
        value: 0.3252626
        inSlope: 0.3844398
        outSlope: 0.3844398
        tangentMode: 0
      - time: 0.4333335
        value: 0.33111227
        inSlope: 0.3155339
        outSlope: 0.3155339
        tangentMode: 0
      - time: 0.45000017
        value: 0.3357804
        inSlope: 0.242636
        outSlope: 0.242636
        tangentMode: 0
      - time: 0.46666685
        value: 0.33920014
        inSlope: 0.16568528
        outSlope: 0.16568528
        tangentMode: 0
      - time: 0.48333353
        value: 0.34130326
        inSlope: 0.084599525
        outSlope: 0.084599525
        tangentMode: 0
      - time: 0.5000002
        value: 0.34202012
        inSlope: 0
        outSlope: 0
        tangentMode: 0
      - time: 0.5166668
        value: 0.34130326
        inSlope: -0.08460232
        outSlope: -0.08460232
        tangentMode: 0
      - time: 0.5333335
        value: 0.33920005
        inSlope: -0.16568735
        outSlope: -0.16568735
        tangentMode: 0
      - time: 0.55000013
        value: 0.33578035
        inSlope: -0.24263644
        outSlope: -0.24263644
        tangentMode: 0
      - time: 0.5666668
        value: 0.33111218
        inSlope: -0.31553537
        outSlope: -0.31553537
        tangentMode: 0
      - time: 0.58333343
        value: 0.32526252
        inSlope: -0.3844396
        outSlope: -0.3844396
        tangentMode: 0
      - time: 0.6000001
        value: 0.31829754
        inSlope: -0.4493822
        outSlope: -0.4493822
        tangentMode: 0
      - time: 0.61666673
        value: 0.31028312
        inSlope: -0.5103694
        outSlope: -0.5103694
        tangentMode: 0
      - time: 0.6333334
        value: 0.30128524
        inSlope: -0.56739235
        outSlope: -0.56739235
        tangentMode: 0
      - time: 0.65000004
        value: 0.29137006
        inSlope: -0.6204179
        outSlope: -0.6204179
        tangentMode: 0
      - time: 0.6666667
        value: 0.28060466
        inSlope: -0.6693995
        outSlope: -0.6693995
        tangentMode: 0
      - time: 0.68333334
        value: 0.26905677
        inSlope: -0.71427655
        outSlope: -0.71427655
        tangentMode: 0
      - time: 0.7
        value: 0.25679547
        inSlope: -0.7549773
        outSlope: -0.7549773
        tangentMode: 0
      - time: 0.71666664
        value: 0.24389088
        inSlope: -0.7914263
        outSlope: -0.7914263
        tangentMode: 0
      - time: 0.7333333
        value: 0.23041461
        inSlope: -0.8235373
        outSlope: -0.8235373
        tangentMode: 0
      - time: 0.74999994
        value: 0.21643966
        inSlope: -0.851228
        outSlope: -0.851228
        tangentMode: 0
      - time: 0.7666666
        value: 0.20204037
        inSlope: -0.87441576
        outSlope: -0.87441576
        tangentMode: 0
      - time: 0.78333324
        value: 0.1872925
        inSlope: -0.8930204
        outSlope: -0.8930204
        tangentMode: 0
      - time: 0.7999999
        value: 0.17227305
        inSlope: -0.90696883
        outSlope: -0.90696883
        tangentMode: 0
      - time: 0.81666654
        value: 0.15706024
        inSlope: -0.9161948
        outSlope: -0.9161948
        tangentMode: 0
      - time: 0.8333332
        value: 0.14173326
        inSlope: -0.9206401
        outSlope: -0.9206401
        tangentMode: 0
      - time: 0.84999985
        value: 0.12637226
        inSlope: -0.9202603
        outSlope: -0.9202603
        tangentMode: 0
      - time: 0.8666665
        value: 0.111057945
        inSlope: -0.91501904
        outSlope: -0.91501904
        tangentMode: 0
      - time: 0.88333315
        value: 0.09587166
        inSlope: -0.9048901
        outSlope: -0.9048901
        tangentMode: 0
      - time: 0.8999998
        value: 0.08089497
        inSlope: -0.8898626
        outSlope: -0.8898626
        tangentMode: 0
      - time: 0.91666645
        value: 0.0662096
        inSlope: -0.8699343
        outSlope: -0.8699343
        tangentMode: 0
      - time: 0.9333331
        value: 0.051897187
        inSlope: -0.8451127
        outSlope: -0.8451127
        tangentMode: 0
      - time: 0.94999975
        value: 0.038039204
        inSlope: -0.81541467
        outSlope: -0.81541467
        tangentMode: 0
      - time: 0.9666664
        value: 0.024716724
        inSlope: -0.78086567
        outSlope: -0.78086567
        tangentMode: 0
      - time: 0.98333305
        value: 0.012010371
        inSlope: -0.74149597
        outSlope: -0.74149597
        tangentMode: 0
      - time: 1
        value: 0
        inSlope: -0.7206101
        outSlope: -0.7206101
        tangentMode: 0
      m_PreInfinity: 2
      m_PostInfinity: 2
      m_RotationOrder: 4
    attribute: m_LocalRotation.z
    path: img/left
    classID: 4
    script: {fileID: 0}
  - curve:
      serializedVersion: 2
      m_Curve:
      - time: 0
        value: 1
        inSlope: -0.004327297
        outSlope: -0.004327297
        tangentMode: 0
      - time: 0.016666668
        value: 0.9999279
        inSlope: -0.009164214
        outSlope: -0.009164214
        tangentMode: 0
      - time: 0.033333335
        value: 0.9996945
        inSlope: -0.019547937
        outSlope: -0.019547937
        tangentMode: 0
      - time: 0.050000004
        value: 0.9992763
        inSlope: -0.03126204
        outSlope: -0.03126204
        tangentMode: 0
      - time: 0.06666667
        value: 0.99865246
        inSlope: -0.04411519
        outSlope: -0.04411519
        tangentMode: 0
      - time: 0.083333336
        value: 0.9978058
        inSlope: -0.057894595
        outSlope: -0.057894595
        tangentMode: 0
      - time: 0.1
        value: 0.99672264
        inSlope: -0.07236243
        outSlope: -0.07236243
        tangentMode: 0
      - time: 0.11666667
        value: 0.9953937
        inSlope: -0.087261185
        outSlope: -0.087261185
        tangentMode: 0
      - time: 0.13333334
        value: 0.99381393
        inSlope: -0.10232268
        outSlope: -0.10232268
        tangentMode: 0
      - time: 0.15
        value: 0.99198294
        inSlope: -0.11727155
        outSlope: -0.11727155
        tangentMode: 0
      - time: 0.16666667
        value: 0.9899049
        inSlope: -0.13181628
        outSlope: -0.13181628
        tangentMode: 0
      - time: 0.18333334
        value: 0.98758906
        inSlope: -0.145669
        outSlope: -0.145669
        tangentMode: 0
      - time: 0.2
        value: 0.98504925
        inSlope: -0.15854539
        outSlope: -0.15854539
        tangentMode: 0
      - time: 0.21666667
        value: 0.9823042
        inSlope: -0.17016114
        outSlope: -0.17016114
        tangentMode: 0
      - time: 0.23333333
        value: 0.9793772
        inSlope: -0.18024625
        outSlope: -0.18024625
        tangentMode: 0
      - time: 0.25
        value: 0.976296
        inSlope: -0.18853955
        outSlope: -0.18853955
        tangentMode: 0
      - time: 0.26666668
        value: 0.97309256
        inSlope: -0.19479974
        outSlope: -0.19479974
        tangentMode: 0
      - time: 0.28333336
        value: 0.9698027
        inSlope: -0.19880338
        outSlope: -0.19880338
        tangentMode: 0
      - time: 0.30000004
        value: 0.9664658
        inSlope: -0.20035191
        outSlope: -0.20035191
        tangentMode: 0
      - time: 0.31666672
        value: 0.9631243
        inSlope: -0.19927008
        outSlope: -0.19927008
        tangentMode: 0
      - time: 0.3333334
        value: 0.9598234
        inSlope: -0.19541664
        outSlope: -0.19541664
        tangentMode: 0
      - time: 0.35000008
        value: 0.9566104
        inSlope: -0.18868253
        outSlope: -0.18868253
        tangentMode: 0
      - time: 0.36666676
        value: 0.953534
        inSlope: -0.17898545
        outSlope: -0.17898545
        tangentMode: 0
      - time: 0.38333344
        value: 0.9506442
        inSlope: -0.16629502
        outSlope: -0.16629502
        tangentMode: 0
      - time: 0.40000013
        value: 0.94799083
        inSlope: -0.15061307
        outSlope: -0.15061307
        tangentMode: 0
      - time: 0.4166668
        value: 0.94562376
        inSlope: -0.13198423
        outSlope: -0.13198423
        tangentMode: 0
      - time: 0.4333335
        value: 0.94359136
        inSlope: -0.110503346
        outSlope: -0.110503346
        tangentMode: 0
      - time: 0.45000017
        value: 0.9419403
        inSlope: -0.08631341
        outSlope: -0.08631341
        tangentMode: 0
      - time: 0.46666685
        value: 0.94071424
        inSlope: -0.05961294
        outSlope: -0.05961294
        tangentMode: 0
      - time: 0.48333353
        value: 0.9399532
        inSlope: -0.030648697
        outSlope: -0.030648697
        tangentMode: 0
      - time: 0.5000002
        value: 0.9396926
        inSlope: 0.0000017881393
        outSlope: 0.0000017881393
        tangentMode: 0
      - time: 0.5166668
        value: 0.93995327
        inSlope: 0.030648738
        outSlope: 0.030648738
        tangentMode: 0
      - time: 0.5333335
        value: 0.94071424
        inSlope: 0.059611257
        outSlope: 0.059611257
        tangentMode: 0
      - time: 0.55000013
        value: 0.9419403
        inSlope: 0.086315356
        outSlope: 0.086315356
        tangentMode: 0
      - time: 0.5666668
        value: 0.9435914
        inSlope: 0.11050354
        outSlope: 0.11050354
        tangentMode: 0
      - time: 0.58333343
        value: 0.94562376
        inSlope: 0.13198447
        outSlope: 0.13198447
        tangentMode: 0
      - time: 0.6000001
        value: 0.9479909
        inSlope: 0.15061334
        outSlope: 0.15061334
        tangentMode: 0
      - time: 0.61666673
        value: 0.9506442
        inSlope: 0.16629532
        outSlope: 0.16629532
        tangentMode: 0
      - time: 0.6333334
        value: 0.95353407
        inSlope: 0.17898756
        outSlope: 0.17898756
        tangentMode: 0
      - time: 0.65000004
        value: 0.95661044
        inSlope: 0.18868107
        outSlope: 0.18868107
        tangentMode: 0
      - time: 0.6666667
        value: 0.9598234
        inSlope: 0.19541699
        outSlope: 0.19541699
        tangentMode: 0
      - time: 0.68333334
        value: 0.96312433
        inSlope: 0.19927044
        outSlope: 0.19927044
        tangentMode: 0
      - time: 0.7
        value: 0.9664658
        inSlope: 0.20035048
        outSlope: 0.20035048
        tangentMode: 0
      - time: 0.71666664
        value: 0.9698027
        inSlope: 0.19880374
        outSlope: 0.19880374
        tangentMode: 0
      - time: 0.7333333
        value: 0.97309256
        inSlope: 0.19480008
        outSlope: 0.19480008
        tangentMode: 0
      - time: 0.74999994
        value: 0.976296
        inSlope: 0.1885398
        outSlope: 0.1885398
        tangentMode: 0
      - time: 0.7666666
        value: 0.9793772
        inSlope: 0.18024641
        outSlope: 0.18024641
        tangentMode: 0
      - time: 0.78333324
        value: 0.9823042
        inSlope: 0.17016129
        outSlope: 0.17016129
        tangentMode: 0
      - time: 0.7999999
        value: 0.98504925
        inSlope: 0.15854374
        outSlope: 0.15854374
        tangentMode: 0
      - time: 0.81666654
        value: 0.987589
        inSlope: 0.14566913
        outSlope: 0.14566913
        tangentMode: 0
      - time: 0.8333332
        value: 0.9899049
        inSlope: 0.13181639
        outSlope: 0.13181639
        tangentMode: 0
      - time: 0.84999985
        value: 0.9919829
        inSlope: 0.117271654
        outSlope: 0.117271654
        tangentMode: 0
      - time: 0.8666665
        value: 0.99381393
        inSlope: 0.10232458
        outSlope: 0.10232458
        tangentMode: 0
      - time: 0.88333315
        value: 0.9953937
        inSlope: 0.08726128
        outSlope: 0.08726128
        tangentMode: 0
      - time: 0.8999998
        value: 0.99672264
        inSlope: 0.0723607
        outSlope: 0.0723607
        tangentMode: 0
      - time: 0.91666645
        value: 0.9978057
        inSlope: 0.05789464
        outSlope: 0.05789464
        tangentMode: 0
      - time: 0.9333331
        value: 0.99865246
        inSlope: 0.04411523
        outSlope: 0.04411523
        tangentMode: 0
      - time: 0.94999975
        value: 0.9992762
        inSlope: 0.03126028
        outSlope: 0.03126028
        tangentMode: 0
      - time: 0.9666664
        value: 0.99969447
        inSlope: 0.019549746
        outSlope: 0.019549746
        tangentMode: 0
      - time: 0.98333305
        value: 0.9999279
        inSlope: 0.0091659725
        outSlope: 0.0091659725
        tangentMode: 0
      - time: 1
        value: 1
        inSlope: 0.004327224
        outSlope: 0.004327224
        tangentMode: 0
      m_PreInfinity: 2
      m_PostInfinity: 2
      m_RotationOrder: 4
    attribute: m_LocalRotation.w
    path: img/left
    classID: 4
    script: {fileID: 0}
  m_EulerEditorCurves:
  - curve:
      serializedVersion: 2
      m_Curve:
      - time: 0
        value: 0
        inSlope: 0
        outSlope: 0
        tangentMode: 10
      m_PreInfinity: 2
      m_PostInfinity: 2
      m_RotationOrder: 4
    attribute: localEulerAnglesBaked.x
    path: img/right
    classID: 4
    script: {fileID: 0}
  - curve:
      serializedVersion: 2
      m_Curve:
      - time: 0
        value: 0
        inSlope: -80
        outSlope: -80
        tangentMode: 10
      - time: 0.5
        value: -40
        inSlope: 0
        outSlope: 0
        tangentMode: 10
      - time: 1
        value: 0
        inSlope: 80
        outSlope: 80
        tangentMode: 10
      m_PreInfinity: 2
      m_PostInfinity: 2
      m_RotationOrder: 4
    attribute: localEulerAnglesBaked.z
    path: img/right
    classID: 4
    script: {fileID: 0}
  - curve:
      serializedVersion: 2
      m_Curve:
      - time: 0
        value: 0
        inSlope: 0
        outSlope: 0
        tangentMode: 10
      m_PreInfinity: 2
      m_PostInfinity: 2
      m_RotationOrder: 4
    attribute: localEulerAnglesBaked.x
    path: img/left
    classID: 4
    script: {fileID: 0}
  - curve:
      serializedVersion: 2
      m_Curve:
      - time: 0
        value: 0
        inSlope: 0
        outSlope: 0
        tangentMode: 10
      m_PreInfinity: 2
      m_PostInfinity: 2
      m_RotationOrder: 4
    attribute: localEulerAnglesBaked.y
    path: img/left
    classID: 4
    script: {fileID: 0}
  - curve:
      serializedVersion: 2
      m_Curve:
      - time: 0
        value: 0
        inSlope: 80
        outSlope: 80
        tangentMode: 10
      - time: 0.5
        value: 40
        inSlope: 0
        outSlope: 0
        tangentMode: 10
      - time: 1
        value: 0
        inSlope: -80
        outSlope: -80
        tangentMode: 10
      m_PreInfinity: 2
      m_PostInfinity: 2
      m_RotationOrder: 4
    attribute: localEulerAnglesBaked.z
    path: img/left
    classID: 4
    script: {fileID: 0}
  - curve:
      serializedVersion: 2
      m_Curve:
      - time: 0
        value: 0
        inSlope: 0
        outSlope: 0
        tangentMode: 10
      m_PreInfinity: 2
      m_PostInfinity: 2
      m_RotationOrder: 4
    attribute: localEulerAnglesBaked.y
    path: img/right
    classID: 4
    script: {fileID: 0}
  m_HasGenericRootTransform: 0
  m_HasMotionFloatCurves: 0
  m_GenerateMotionCurves: 0
  m_Events: []
